# Written by Andreas "Cold Evul" Brostrom
#Hezbollah support Shias
HEZ_support_shias = {
	allowed = {
		original_tag = HEZ
	}

	reversed = yes

	enable = {
		has_idea = shia
	}

	abort_when_not_enabled = yes

	ai_strategy = {
		type = befriend
		id = "HEZ"
		value = 200
	}

	ai_strategy = {
		type = protect
		id = "HEZ"
		value = 200
	}

	ai_strategy = {
		type = support
		id = "HEZ"
		value = 200
	}

	ai_strategy = {
		type = send_volunteers_desire
		id = "HEZ"
		value = 200
	}

	ai_strategy = {
		type = influence
		id = "HEZ"
		value = 200
	}

}

HEZ_support_lebanon = {
	allowed = { original_tag = HEZ }
	enable = {
		NOT = { has_war_with = LEB }
		LEB = { NOT = { has_government = fascism } }
	}
	abort = {
		OR = {
			has_war_with = LEB
			LEB = { has_government = fascism }
		}
	}

	ai_strategy = { type = befriend id = "LEB" value = 200 }
	ai_strategy = { type = protect id = "LEB" value = 200 }
	ai_strategy = { type = support id = "LEB" value = 200 }
	ai_strategy = { type = send_volunteers_desire id = "LEB" value = 500 }
}

HEZ_kill_the_infidels = {
	allowed = { original_tag = HEZ }
	enable = {
		country_exists = ISR #Israel
	}
	abort_when_not_enabled = yes

	ai_strategy = { type = antagonize id = "ISR" value = 200 }
	ai_strategy = { type = contain id = "ISR" value = 200 }
	ai_strategy = { type = prepare_for_war id = "ISR" value = 200 }
}

general_opposition_against_HEZ = {
	enable = { has_opinion_modifier = HEZ_Are_Partly_Terrorists }
	abort = { NOT = { has_opinion_modifier = HEZ_Are_Partly_Terrorists } }
	ai_strategy = { type = antagonize id = "HEZ" value = 25 }
}

massive_opposition_against_HEZ = {
	enable = { has_opinion_modifier = HEZ_Are_Terrorists }
	abort = { NOT = { has_opinion_modifier = HEZ_Are_Terrorists } }
	ai_strategy = { type = antagonize id = "HEZ" value = 50 }
}
HEZ_befriend_iran = {
	allowed = { original_tag = HEZ }
	enable = {
		NOT = { has_war_with = PER }
		PER = {
			OR = {
				emerging_moderate_shiite_are_in_power = yes
				emerging_hardline_shiite_are_in_power = yes
			}
		}
	}
	abort_when_not_enabled = yes

	ai_strategy = { type = befriend id = "PER" value = 200 }
	ai_strategy = { type = protect id = "PER" value = 200 }
	ai_strategy = { type = influence id = "PER" value = 200 }
	ai_strategy = { type = antagonize id = "PER" value = -50 }
	ai_strategy = { type = alliance id = "PER" value = 50 }
	ai_strategy = { type = support id = "PER" value = 200 }
	ai_strategy = { type = contain id = "PER" value = -50 }
}
#
HEZ_rival_iran = {
	allowed = { original_tag = HEZ }
	enable = {
		NOT = { has_war_with = PER }
		PER = {
			NOT = {
				OR = {
					emerging_moderate_shiite_are_in_power = yes
					emerging_hardline_shiite_are_in_power = yes
				}
			}
		}
	}
	abort_when_not_enabled = yes

	ai_strategy = { type = befriend id = "PER" value = -200 }
	ai_strategy = { type = protect id = "PER" value = -200 }
	ai_strategy = { type = influence id = "PER" value = -200 }
	ai_strategy = { type = antagonize id = "PER" value = 150 }
	ai_strategy = { type = alliance id = "PER" value = -200 }
	ai_strategy = { type = support id = "PER" value = -200 }
	ai_strategy = { type = contain id = "PER" value = 150 }
}