
strategic_region={
	id=164
	name="STRATEGICREGION_164"
	provinces={
		357 996 1001 1006 1029 1053 1055 1066 1076 1083 1089 1094 1096 1099 1110 1121 1125 1138 1146 1153 1161 1166 1168 1171 1193 1195 1628 1640 3992 4001 4005 4013 4031 4038 4042 4053 4070 4079 4081 4082 4083 4091 4099 4105 4113 4123 4148 4156 4158 4169 4173 4183 4185 4196 4203 7004 7007 7014 7027 7035 7054 7058 7071 7086 7094 7099 7104 7120 7131 7142 7146 7172 7174 7181 7191 7199 7200 7222 7653 9937 9942 9944 9953 9972 9974 9984 9995 10008 10010 10012 10014 10017 10034 10040 10042 10044 10054 10057 10058 10064 10069 10076 10079 10084 10086 10093 10095 10101 10112 10114 10501 11913 11916 11920 11928 11937 11945 11947 11961 11973 11982 11986 11988 11991 11994 12019 12030 12036 12052 12055 12057 12059 12061 12067 12076 12084 12495 13141 13142 13144 14302 14607 14611 14751 14752 14753 14754 14755
	}
	weather={
		period={
			between={ 0.0 30.0 }
			temperature={ -2.0 7.0 }
			#temperature_day_night={ -2.0 2.0 }
			no_phenomenon=1.500
			rain_light=0.250
			rain_heavy=0.100
			snow=0.000
			blizzard=0.000
			arctic_water=0.000
			mud=1.000
			sandstorm=0.000
			min_snow_level=0.000
		}
		period={
			between={ 0.1 27.1 }
			temperature={ -2.0 7.0 }
			#temperature_day_night={ -2.0 2.0 }
			no_phenomenon=1.500
			rain_light=0.250
			rain_heavy=0.100
			snow=0.000
			blizzard=0.000
			arctic_water=0.000
			mud=1.000
			sandstorm=0.000
			min_snow_level=0.000
		}
		period={
			between={ 0.2 30.2 }
			temperature={ -2.0 7.0 }
			#temperature_day_night={ -2.0 2.0 }
			no_phenomenon=1.500
			rain_light=0.250
			rain_heavy=0.100
			snow=0.000
			blizzard=0.000
			arctic_water=0.000
			mud=1.000
			sandstorm=0.000
			min_snow_level=0.000
		}
		period={
			between={ 0.3 29.3 }
			temperature={ 23.0 36.0 }
			#temperature_day_night={ -2.0 2.0 }
			no_phenomenon=1.500
			rain_light=0.700
			rain_heavy=0.500
			snow=0.000
			blizzard=0.000
			arctic_water=0.000
			mud=1.000
			sandstorm=0.000
			min_snow_level=0.000
		}
		period={
			between={ 0.4 30.4 }
			temperature={ 23.0 36.0 }
			#temperature_day_night={ -2.0 2.0 }
			no_phenomenon=1.500
			rain_light=0.700
			rain_heavy=0.500
			snow=0.000
			blizzard=0.000
			arctic_water=0.000
			mud=1.000
			sandstorm=0.000
			min_snow_level=0.000
		}
		period={
			between={ 0.5 29.5 }
			temperature={ 23.0 36.0 }
			#temperature_day_night={ -2.0 2.0 }
			no_phenomenon=1.500
			rain_light=0.700
			rain_heavy=0.500
			snow=0.000
			blizzard=0.000
			arctic_water=0.000
			mud=1.000
			sandstorm=0.000
			min_snow_level=0.000
		}
		period={
			between={ 0.6 30.6 }
			temperature={ 20.0 30.0 }
			#temperature_day_night={ -2.0 2.0 }
			no_phenomenon=0.500
			rain_light=0.600
			rain_heavy=0.450
			snow=0.000
			blizzard=0.000
			arctic_water=0.000
			mud=1.000
			sandstorm=0.000
			min_snow_level=0.000
		}
		period={
			between={ 0.7 30.7 }
			temperature={ 20.0 30.0 }
			#temperature_day_night={ -2.0 2.0 }
			no_phenomenon=0.500
			rain_light=0.600
			rain_heavy=0.450
			snow=0.000
			blizzard=0.000
			arctic_water=0.000
			mud=1.000
			sandstorm=0.000
			min_snow_level=0.000
		}
		period={
			between={ 0.8 29.8 }
			temperature={ 20.0 30.0 }
			#temperature_day_night={ -2.0 2.0 }
			no_phenomenon=0.500
			rain_light=0.600
			rain_heavy=0.450
			snow=0.000
			blizzard=0.000
			arctic_water=0.000
			mud=1.000
			sandstorm=0.000
			min_snow_level=0.000
		}
		period={
			between={ 0.9 30.9 }
			temperature={ 10.0 30.0 }
			#temperature_day_night={ -2.0 2.0 }
			no_phenomenon=1.500
			rain_light=0.600
			rain_heavy=0.450
			snow=0.000
			blizzard=0.000
			arctic_water=0.000
			mud=1.050
			sandstorm=0.000
			min_snow_level=0.000
		}
		period={
			between={ 0.10 29.10 }
			temperature={ 10.0 23.0 }
			#temperature_day_night={ -2.0 2.0 }
			no_phenomenon=1.500
			rain_light=0.250
			rain_heavy=0.100
			snow=0.000
			blizzard=0.000
			arctic_water=0.000
			mud=1.000
			sandstorm=0.000
			min_snow_level=0.000
		}
		period={
			between={ 0.11 30.11 }
			temperature={ 10.0 23.0 }
			#temperature_day_night={ -2.0 2.0 }
			no_phenomenon=1.500
			rain_light=0.250
			rain_heavy=0.100
			snow=0.000
			blizzard=0.000
			arctic_water=0.000
			mud=1.000
			sandstorm=0.000
			min_snow_level=0.000
		}
	}
}
