leader_traits = {

#US Focus tree
	#Cabinet picks - Secretary of State
	USA_Rex_Tillerson = { democratic_drift = 0.01 } #western
	USA_Giuliani = { democratic_drift = 0.01 } #western
	USA_Romney = { democratic_drift = 0.01  } #western
	USA_Alex_Jones = { nationalist_drift = 0.01 } #nationalist
	##Cabinet picks - Secretary of Deffense
	USA_Mattis = { democratic_drift = 0.01 } #western
	USA_Mike_Flynn = { nationalist_drift = 0.01 } #nationalist
	#Cabinet picks - Attorney General
	USA_Sessions = { democratic_drift = 0.01 } #western
	USA_Kris_Kobac = { nationalist_drift = 0.01 } #nationalist
	#Cabinet picks - White House Chief of Staff
	USA_Priebus = { democratic_drift = 0.01 } #western
	USA_Bannon = { nationalist_drift = 0.01 } #nationalist

	has_naval_manufacturer = {

	}
	has_naval_manufacturer = {

	}
	has_tank_manufacturer = {

	}
	has_materiel_manufacturer = {

	}
	has_tank_manufacturer = {

	}
	has_aircraft_manufacturer = {

	}

#Anti Bully war #1
	AB_1_NU1 = {
		random = no
		stability_factor = -0.02
		ai_will_do = {
			factor = 1
		}
	}
	AB_1_NU2 = {
		random = no
		stability_factor = -0.04
		ai_will_do = {
			factor = 1
		}
	}
	AB_1_NU3 = {
		random = no
		stability_factor = -0.06
		ai_will_do = {
			factor = 1
		}
	}
	AB_1_NU4 = {
		random = no
		stability_factor = -0.08
		ai_will_do = {
			factor = 1
		}
	}
	AB_1_NU5 = {
		random = no
		stability_factor = -0.1
		ai_will_do = {
			factor = 1
		}
	}
	AB_1_NU6 = {
		random = no
		stability_factor = -0.12
		ai_will_do = {
			factor = 1
		}
	}
	AB_1_NU7 = {
		random = no
		stability_factor = -0.14
		ai_will_do = {
			factor = 1
		}
	}
	AB_1_NU8 = {
		random = no
		stability_factor = -0.16
		ai_will_do = {
			factor = 1
		}
	}
	AB_1_NU9 = {
		random = no
		stability_factor = -0.18
		ai_will_do = {
			factor = 1
		}
	}
	AB_1_NU10 = {
		random = no
		stability_factor = -0.2
		ai_will_do = {
			factor = 1
		}
	}

#Anti Bully war #2
	AB_2_NU1 = {
		random = no
		stability_factor = -0.02
		ai_will_do = {
			factor = 1
		}
	}
	AB_2_NU2 = {
		random = no
		stability_factor = -0.04
		ai_will_do = {
			factor = 1
		}
	}
	AB_2_NU3 = {
		random = no
		stability_factor = -0.06
		ai_will_do = {
			factor = 1
		}
	}
	AB_2_NU4 = {
		random = no
		stability_factor = -0.08
		ai_will_do = {
			factor = 1
		}
	}
	AB_2_NU5 = {
		random = no
		stability_factor = -0.1
		ai_will_do = {
			factor = 1
		}
	}
	AB_2_NU6 = {
		random = no
		stability_factor = -0.12
		ai_will_do = {
			factor = 1
		}
	}
	AB_2_NU7 = {
		random = no
		stability_factor = -0.14
		ai_will_do = {
			factor = 1
		}
	}
	AB_2_NU8 = {
		random = no
		stability_factor = -0.16
		ai_will_do = {
			factor = 1
		}
	}
	AB_2_NU9 = {
		random = no
		stability_factor = -0.18
		ai_will_do = {
			factor = 1
		}
	}
	AB_2_NU10 = {
		random = no
		stability_factor = -0.2
		ai_will_do = {
			factor = 1
		}
	}


#National Unity gain
	NU_gain_1 = {
		random = no
		stability_weekly = -0.0002 #-1% a year
		ai_will_do = {
			factor = 1
		}
	}
	NU_gain_2 = {
		random = no
		stability_weekly = 0.003 #-0.75% a year
		ai_will_do = {
			factor = 1
		}
	}
	NU_gain_3 = {
		random = no
		stability_weekly = 0.02 #-0.5% a year
		ai_will_do = {
			factor = 1
		}
	}
	NU_gain_4 = {
		random = no
		stability_weekly = 0.02 #-0.25% a year
		ai_will_do = {
			factor = 1
		}
	}
	NU_gain_5 = {
		random = no
		stability_weekly = 0 #0% a year
		ai_will_do = {
			factor = 1
		}
	}
	NU_gain_6 = {
		random = no
		stability_weekly = 0.002 #0.2% a year
		ai_will_do = {
			factor = 1
		}
	}
	NU_gain_7 = {
		stability_weekly = 0.002 #0.4% a year
		ai_will_do = {
				factor = 1
			}
	}
	NU_gain_8 = {
		random = no
		stability_weekly = 0.02 #0.6% a year
		ai_will_do = {
			factor = 1
		}
	}
	NU_gain_9 = {
		random = no
		stability_weekly = 0.02 #0.8% a year
		ai_will_do = {
			factor = 1
		}
	}
	NU_gain_10 = {
		random = no
		stability_weekly = 0.02 #1% a year
		ai_will_do = {
			factor = 1
		}
	}

#Political Power gain
	pp_gain0 = {
		random = no
		political_power_factor = -0.7
		ai_will_do = {
			factor = 1
		}

	}
	pp_gain1 = {
		random = no
		political_power_factor = -0.6
		ai_will_do = {
			factor = 1
		}

	}
	pp_gain2 = {
		random = no
		political_power_factor = -0.5
		ai_will_do = {
			factor = 1
		}

	}
	pp_gain3 = {
		random = no
		political_power_factor = -0.4
		ai_will_do = {
			factor = 1
		}

	}
	pp_gain4 = {
		random = no
		political_power_factor = -0.3
		ai_will_do = {
			factor = 1
		}

	}
	pp_gain5 = {
		random = no
		political_power_factor = -0.2
		ai_will_do = {
			factor = 1
		}

	}
	pp_gain6 = {
		random = no
		political_power_factor = -0.1
		ai_will_do = {
			factor = 1
		}

	}
	pp_gain7 = {
		random = no
		#political_power_factor = 1
		ai_will_do = {
			factor = 1
		}

	}
	pp_gain8 = {
		random = no
		political_power_factor = 0.1
		ai_will_do = {
			factor = 1
		}

	}
	pp_gain9 = {
		random = no
		political_power_factor = 0.2
		ai_will_do = {
			factor = 1
		}

	}
	pp_gain10 = {
		random = no
		political_power_factor = 0.3
		ai_will_do = {
			factor = 1
		}

	}

##### MD4 traits to apply to country leaders ####

### Sub-ideologies:
	western_conservatism = {
		random = no
		ai_will_do = {
			factor = 1
		}
	}
	western_liberalism = {
		random = no
		ai_will_do = {
			factor = 1
		}
	}
	western_socialism = {
		random = no
		ai_will_do = {
			factor = 1
		}
	}
	western_Western_Autocracy = {
		random = no
		ai_will_do = {
			factor = 1
		}
	}
	western_technocrat = {
		random = no
		interest_rate_multiplier_modifier = -3
		stability_factor = 0.3
		political_power_factor = -0.3
		ai_will_do = {
			factor = 1
		}
	}
	roman_senate_trait = {
		random = no
		ai_will_do = {
			factor = 1
		}
	}
	emerging_Communist-State = {
		random = no
		ai_will_do = {
			factor = 1
		}
	}
	emerging_Conservative = {
		random = no
		ai_will_do = {
			factor = 1
		}
	}
	emerging_Autocracy = {
		random = no
		ai_will_do = {
			factor = 1
		}
	}
	emerging_Vilayat_e_Faqih = {
		random = no
		ai_will_do = {
			factor = 1
		}
	}
	emerging_Mod_Vilayat_e_Faqih = {
		random = no
		ai_will_do = {
			factor = 1
		}
	}
	emerging_anarchist_communism = {
		random = no
		ai_will_do = {
			factor = 1
		}
	}
	salafist_Kingdom = {
		random = no
		ai_will_do = {
			factor = 1
		}
	}
	salafist_Caliphate = {
		random = no
		ai_will_do = {
			factor = 1
		}
	}
	neutrality_Neutral_conservatism = {
		random = no
		ai_will_do = {
			factor = 1
		}
	}
	neutrality_oligarchism = {
		random = no
		ai_will_do = {
			factor = 1
		}
	}
	neutrality_neutral_Social = {
		random = no
		ai_will_do = {
			factor = 1
		}
	}
	neutrality_Neutral_Libertarian = {
		random = no
		ai_will_do = {
			factor = 1
		}
	}
	neutrality_Neutral_Autocracy = {
		random = no
		ai_will_do = {
			factor = 1
		}
	}
	neutrality_Neutral_Communism = {
		random = no
		ai_will_do = {
			factor = 1
		}
	}
	neutrality_Neutral_Muslim_Brotherhood = {
		random = no
		ai_will_do = {
			factor = 1
		}
	}
	neutrality_Neutral_green = {
		random = no
		ai_will_do = {
			factor = 1
		}
	}
	nationalist_Nat_Autocracy = {
		random = no
		ai_will_do = {
			factor = 1
		}
	}
	nationalist_Nat_Fascism = {
		random = no
		ai_will_do = {
			factor = 1
		}
	}
	nationalist_Nat_Populism = {
		random = no
		ai_will_do = {
			factor = 1
		}
	}
	nationalist_Monarchist = {
		random = no
		ai_will_do = {
			factor = 1
		}
	}

### Ruling party ideologies

	party_trait_communist = {
		random = no
		ai_will_do = {
			factor = 1
		}
	}

	party_trait_socialist = {
		random = no
		ai_will_do = {
			factor = 1
		}
	}

	party_trait_green = {
		random = no
		ai_will_do = {
			factor = 1
		}
	}

	party_trait_social_democrat = {
		random = no
		ai_will_do = {
			factor = 1
		}
	}

	party_trait_social_liberal = {
		random = no
		ai_will_do = {
			factor = 1
		}
	}

	party_trait_social_conservative = {
		random = no
		ai_will_do = {
			factor = 1
		}
	}

	party_trait_libertarian = {
		random = no
		ai_will_do = {
			factor = 1
		}
	}

	party_trait_national_conservative = {
		random = no
		ai_will_do = {
			factor = 1
		}
	}

	party_trait_national_authoritarian = {
		random = no
		ai_will_do = {
			factor = 1
		}
	}

	party_trait_neo_national_socialist = {
		random = no
		ai_will_do = {
			factor = 1
		}
	}

	party_trait_islamist = {
		random = no
		ai_will_do = {
			factor = 1
		}
	}

	party_trait_fundamental_islamist = {
		random = no
		ai_will_do = {
			factor = 1
		}
	}

### Personalities:

	emotional = {
		random = yes
		ai_will_do = {
			factor = 1
		}
	}
	rational = {
		random = yes
		ai_will_do = {
			factor = 1
		}
	}
	cautious = {
		random = yes
		ai_focus_defense_factor = 0.2
		ai_will_do = {
			factor = 1
		}
	}
	rash = {
		random = yes
		ai_focus_aggressive_factor = 0.2
		ai_will_do = {
			factor = 1
		}
	}
	ruthless = {
		random = yes
		ai_focus_aggressive_factor = 0.1
		ai_will_do = {
			factor = 1
		}
	}
	greedy = {
		random = yes
		ai_will_do = {
			factor = 1
		}
	}
	humble = {
		random = yes
		ai_will_do = {
			factor = 1
		}
	}
	honest = {
		random = yes
		ai_will_do = {
			factor = 1
		}
	}
	deceitful = {
		random = yes
		ai_will_do = {
			factor = 1
		}
	}
	zealous = {
		random = no
		ai_focus_aggressive_factor = 0.25
		ai_will_do = {
			factor = 1
		}
	}
	dumbass_trait = {
		random = no
		interest_rate_multiplier_modifier = 5.00
		ai_will_do = {
			factor = 1
		}
	}
	stubborn = {
		random = yes
		ai_will_do = {
			factor = 1
		}
	}
	sly = {
		random = yes
		ai_will_do = {
			factor = 1
		}
	}
	narcissist = {
		random = yes
		ai_will_do = {
			factor = 1
		}
	}
	coward = {
		random = yes
		ai_focus_aggressive_factor = -0.2
		ai_will_do = {
			factor = 1
		}
	}

#Abillities:

	tech_savy = {
		random = yes
		ai_will_do = {
			factor = 1
		}
	}
	polished = {
		random = yes
		ai_will_do = {
			factor = 1
		}
	}
	likeable = {
		random = yes
		ai_will_do = {
			factor = 1
		}
	}
	war_criminal = {
		random = no
		ai_will_do = {
			factor = 1
		}
	}
	megaproject_maniac = {
		random = yes
		production_speed_infrastructure_factor = 0.10

		ai_will_do = {
			factor = 1
		}
	}

#Political

	army_general = {
		random = yes
		max_planning_factor = 0.10
		army_defence_factor = 0.04
		experience_gain_factor = 0.10
	}
	internationally_decorated_commander = {
		random = yes
		max_planning_factor = 0.08
		army_org_factor = 0.07
		army_attack_factor = 0.02
		army_defence_factor = 0.02
		experience_gain_factor = 0.15
	}
	technocrat = {
		random = yes
		political_power_gain = -0.07
		monthly_population = 0.03
		bureaucracy_cost_multiplier_modifier = -0.02
		police_cost_multiplier_modifier = -0.02
		education_cost_multiplier_modifier = -0.02
		health_cost_multiplier_modifier = -0.02
		social_cost_multiplier_modifier = -0.02
		ai_will_do = {
			factor = 1
		}
	}
	agricultural_resource_economist = {
		random = yes
		political_power_gain = -0.06
		consumer_goods_factor = -0.01
		monthly_population = 0.12
		health_cost_multiplier_modifier = -0.03
		social_cost_multiplier_modifier = -0.03
		ai_will_do = {
			factor = 1
		}
	}
	ecological_economist = {
		random = yes
		political_power_gain = -0.08
		consumer_goods_factor = 0.01
		monthly_population = 0.07
		health_cost_multiplier_modifier = -0.05
		ai_will_do = {
			factor = 1
		}
	}
	inexperienced = {
		random = yes
		political_power_factor = -0.10
		ai_will_do = {
			factor = 1
		}
	}
	capable = {
		random = yes
		production_speed_buildings_factor = 0.1
		ai_will_do = {
			factor = 1
		}
	}
	geopolitical_thinker = {
		random = yes
		foreign_influence_modifier = 0.1
		ai_will_do = {
			factor = 1
		}
	}
	emperor_of_japan = {
		random = no
		political_power_factor = 0.10
		ai_will_do = {
			factor = 1
		}
	}
	shahanshah = {
		random = no
		political_power_factor = 0.10
		personnel_cost_multiplier_modifier = -0.15
		stability_factor = 0.05
		ai_will_do = {
			factor = 1
		}
	}
	educator = {
		random = yes
		education_cost_multiplier_modifier = -0.10
		ai_will_do = {
			factor = 1
		}
	}
	political_dancer = {
		random = yes
		political_power_factor = 0.15
		ai_will_do = {
			factor = 1
		}
	}

	populist = {
		random = yes

		ai_will_do = {
			factor = 1
		}
	}

	IRGC_Member = {
		random = no
		ai_strategy = {
			type = antagonize
			id = "ISR"
			value = 200
		}
		ai_strategy = {
			type = conquer
			id = "ISR"
			value = 100
		}
		ai_will_do = {
			factor = 1
		}
	}
	staunch_constitutionalist = {
		random = no
		drift_defence_factor = 0.5
		ai_will_do = {
			factor = 1
		}
	}

	corruptible = {
		corruption_cost_factor = 0.25
		political_power_factor = 0.10
		stability_factor = -0.02
		ai_will_do = {
			factor = 1
		}
	}

	cornered_fox = {
		random = no
		army_defence_factor = 0.15
		army_morale_Factor = 0.10
		ai_will_do = {
			factor = 1
		}
	}
	military_genius = {
		random = no
		army_attack_factor = 0.1
		army_speed_factor = 0.1
		offensive_war_stability_factor = 0.5
		ai_will_do = {
			factor = 1
		}
	}
	legendary_guerrilla_leader = {
		random = no
		stability_factor = -0.1
		offensive_war_stability_factor = 0.25
		army_attack_factor = 0.1
		justify_war_goal_time = -0.25
		subversive_activites_upkeep = -0.5
		ai_will_do = {
			factor = 1
		}
	}
	permanent_revolutionary = {
		random = no
		political_power_factor = -0.15
		justify_war_goal_time = 0.15
		subversive_activites_upkeep = -0.3
		ai_will_do = {
			factor = 1
		}
	}
	triumphant_revolutionary = {
		random = no
		justify_war_goal_time = 0.15
		subversive_activites_upkeep = -0.5
		drift_defence_factor = 0.15
		ai_will_do = {
			factor = 1
		}
	}
	dictator = {
		random = no
		political_power_factor = 0.25
		ai_will_do = {
			factor = 1
		}
	}
	interventionist = {
		random = no
		war_support_factor = 0.1
		stability_factor = -0.1
		justify_war_goal_time = -0.1
		generate_wargoal_tension = -0.1
		send_volunteers_tension = -0.1
		ai_will_do = {
			factor = 1
		}
	}
	democratic_champion = {
		random = no
		bureaucracy_cost_multiplier_modifier = -0.15
	}
	peoples_leader = {
		random = no
		recruitable_population_factor = 0.05
	}
	general_secretary = {
		random = no
		army_attack_factor = 0.05
		interest_rate_multiplier_modifier = -1
	}
	protector_of_german_culture = {
		random = no
		army_attack_factor = 0.05
		foreign_influence_defense_modifier = 0.05
	}
	#Disease etc.
	alzheimer = {
		random = no
		ai_will_do = {
			factor = 1
		}
	}
	incapable = {
		random = no
		ai_will_do = {
			factor = 1
		}
	}
	drunkard = {
		random = yes
		ai_will_do = {
			factor = 1
		}
	}
	sayyid = {
		random = no
		ai_will_do = {
			factor = 1
		}
	}
	qureshi = {
		random = no
		ai_will_do = {
			factor = 1
		}
	}
	islamophobe = {
		random = no
		#let's antagonize some muslims
		ai_strategy = {
			type = antagonize
			id = "TRK"
			value = 80
		}
		ai_strategy = {
			type = antagonize
			id = "TAJ"
			value = 80
		}
		ai_strategy = {
			type = antagonize
			id = "KYR"
			value = 80
		}
		ai_strategy = {
			type = antagonize
			id = "AFG"
			value = 80
		}
		ai_strategy = {
			type = antagonize
			id = "AZE"
			value = 80
		}
		ai_strategy = {
			type = antagonize
			id = "BRU"
			value = 80
		}
		ai_strategy = {
			type = antagonize
			id = "IND"
			value = 80
		}
		ai_strategy = {
			type = antagonize
			id = "MAY"
			value = 80
		}
		ai_strategy = {
			type = antagonize
			id = "PAK"
			value = 80
		}
		ai_strategy = {
			type = antagonize
			id = "BAN"
			value = 80
		}
		ai_strategy = {
			type = antagonize
			id = "SYR"
			value = 80
		}
		ai_strategy = {
			type = antagonize
			id = "ISI"
			value = 80
		}
		ai_strategy = {
			type = antagonize
			id = "FSA"
			value = 80
		}
		ai_strategy = {
			type = antagonize
			id = "NUS"
			value = 80
		}
		ai_strategy = {
			type = antagonize
			id = "ROJ"
			value = 80
		}
		ai_strategy = {
			type = antagonize
			id = "KUR"
			value = 80
		}
		ai_strategy = {
			type = antagonize
			id = "PER"
			value = 80
		}
		ai_strategy = {
			type = antagonize
			id = "JOR"
			value = 80
		}
		ai_strategy = {
			type = antagonize
			id = "QAT"
			value = 80
		}
		ai_strategy = {
			type = antagonize
			id = "UAE"
			value = 80
		}
		ai_strategy = {
			type = antagonize
			id = "KUW"
			value = 80
		}
		ai_strategy = {
			type = antagonize
			id = "OMA"
			value = 80
		}
		ai_strategy = {
			type = antagonize
			id = "HAM"
			value = 80
		}
		ai_strategy = {
			type = antagonize
			id = "HOU"
			value = 80
		}
		ai_strategy = {
			type = antagonize
			id = "AQY"
			value = 80
		}
		ai_strategy = {
			type = antagonize
			id = "SAU"
			value = 80
		}
		ai_strategy = {
			type = antagonize
			id = "IRQ"
			value = 80
		}
		ai_strategy = {
			type = antagonize
			id = "LEB"
			value = 80
		}
		ai_strategy = {
			type = antagonize
			id = "BHR"
			value = 80
		}
		ai_strategy = {
			type = antagonize
			id = "YEM"
			value = 80
		}
		ai_strategy = {
			type = antagonize
			id = "GNC"
			value = 80
		}
		ai_strategy = {
			type = antagonize
			id = "GNA"
			value = 80
		}
		ai_strategy = {
			type = antagonize
			id = "TUA"
			value = 80
		}
		ai_strategy = {
			type = antagonize
			id = "HOR"
			value = 80
		}
		ai_strategy = {
			type = antagonize
			id = "TUN"
			value = 80
		}
		ai_strategy = {
			type = antagonize
			id = "ALG"
			value = 80
		}
		ai_strategy = {
			type = antagonize
			id = "MOR"
			value = 80
		}
		ai_strategy = {
			type = antagonize
			id = "SHA"
			value = 80
		}
		ai_strategy = {
			type = antagonize
			id = "EGY"
			value = 80
		}
		ai_strategy = {
			type = antagonize
			id = "MOR"
			value = 80
		}
		ai_strategy = {
			type = antagonize
			id = "ALG"
			value = 80
		}
		ai_strategy = {
			type = antagonize
			id = "TUN"
			value = 80
		}
		ai_strategy = {
			type = antagonize
			id = "MAU"
			value = 80
		}
		ai_strategy = {
			type = antagonize
			id = "MAL"
			value = 80
		}
		ai_strategy = {
			type = antagonize
			id = "SEN"
			value = 80
		}
		ai_strategy = {
			type = antagonize
			id = "GAM"
			value = 80
		}
		ai_strategy = {
			type = antagonize
			id = "NGR"
			value = 80
		}
		ai_strategy = {
			type = antagonize
			id = "ERI"
			value = 80
		}
		ai_strategy = {
			type = antagonize
			id = "DJI"
			value = 80
		}
		ai_strategy = {
			type = antagonize
			id = "SOM"
			value = 80
		}
		ai_strategy = {
			type = antagonize
			id = "SUD"
			value = 80
		}
		ai_strategy = {
			type = antagonize
			id = "CHA"
			value = 80
		}
		ai_strategy = {
			type = antagonize
			id = "GUB"
			value = 80
		}
		ai_strategy = {
			type = antagonize
			id = "GUI"
			value = 80
		}
		ai_strategy = {
			type = antagonize
			id = "LBA"
			value = 80
		}
		ai_strategy = {
			type = antagonize
			id = "EGY"
			value = 80
		}
		#contain all muslims
		ai_strategy = {
			type = contain
			id = "TRK"
			value = 80
		}
		ai_strategy = {
			type = contain
			id = "TAJ"
			value = 80
		}
		ai_strategy = {
			type = contain
			id = "KYR"
			value = 80
		}
		ai_strategy = {
			type = contain
			id = "AFG"
			value = 80
		}
		ai_strategy = {
			type = contain
			id = "AZE"
			value = 80
		}
		ai_strategy = {
			type = contain
			id = "BRU"
			value = 80
		}
		ai_strategy = {
			type = contain
			id = "IND"
			value = 80
		}
		ai_strategy = {
			type = contain
			id = "MAY"
			value = 80
		}
		ai_strategy = {
			type = contain
			id = "PAK"
			value = 80
		}
		ai_strategy = {
			type = contain
			id = "BAN"
			value = 80
		}
		ai_strategy = {
			type = contain
			id = "SYR"
			value = 80
		}
		ai_strategy = {
			type = contain
			id = "ISI"
			value = 80
		}
		ai_strategy = {
			type = contain
			id = "FSA"
			value = 80
		}
		ai_strategy = {
			type = contain
			id = "NUS"
			value = 80
		}
		ai_strategy = {
			type = contain
			id = "ROJ"
			value = 80
		}
		ai_strategy = {
			type = contain
			id = "KUR"
			value = 80
		}
		ai_strategy = {
			type = contain
			id = "PER"
			value = 80
		}
		ai_strategy = {
			type = contain
			id = "JOR"
			value = 80
		}
		ai_strategy = {
			type = contain
			id = "QAT"
			value = 80
		}
		ai_strategy = {
			type = contain
			id = "UAE"
			value = 80
		}
		ai_strategy = {
			type = contain
			id = "KUW"
			value = 80
		}
		ai_strategy = {
			type = contain
			id = "OMA"
			value = 80
		}
		ai_strategy = {
			type = contain
			id = "HAM"
			value = 80
		}
		ai_strategy = {
			type = contain
			id = "HOU"
			value = 80
		}
		ai_strategy = {
			type = contain
			id = "AQY"
			value = 80
		}
		ai_strategy = {
			type = contain
			id = "SAU"
			value = 80
		}
		ai_strategy = {
			type = contain
			id = "IRQ"
			value = 80
		}
		ai_strategy = {
			type = contain
			id = "LEB"
			value = 80
		}
		ai_strategy = {
			type = contain
			id = "BHR"
			value = 80
		}
		ai_strategy = {
			type = contain
			id = "YEM"
			value = 80
		}
		ai_strategy = {
			type = contain
			id = "GNC"
			value = 80
		}
		ai_strategy = {
			type = contain
			id = "GNA"
			value = 80
		}
		ai_strategy = {
			type = contain
			id = "TUA"
			value = 80
		}
		ai_strategy = {
			type = contain
			id = "HOR"
			value = 80
		}
		ai_strategy = {
			type = contain
			id = "TUN"
			value = 80
		}
		ai_strategy = {
			type = contain
			id = "ALG"
			value = 80
		}
		ai_strategy = {
			type = contain
			id = "MOR"
			value = 80
		}
		ai_strategy = {
			type = contain
			id = "SHA"
			value = 80
		}
		ai_strategy = {
			type = contain
			id = "EGY"
			value = 80
		}
		ai_strategy = {
			type = contain
			id = "MOR"
			value = 80
		}
		ai_strategy = {
			type = contain
			id = "ALG"
			value = 80
		}
		ai_strategy = {
			type = contain
			id = "TUN"
			value = 80
		}
		ai_strategy = {
			type = contain
			id = "MAU"
			value = 80
		}
		ai_strategy = {
			type = contain
			id = "MAL"
			value = 80
		}
		ai_strategy = {
			type = contain
			id = "SEN"
			value = 80
		}
		ai_strategy = {
			type = contain
			id = "GAM"
			value = 80
		}
		ai_strategy = {
			type = contain
			id = "NGR"
			value = 80
		}
		ai_strategy = {
			type = contain
			id = "ERI"
			value = 80
		}
		ai_strategy = {
			type = contain
			id = "DJI"
			value = 80
		}
		ai_strategy = {
			type = contain
			id = "SOM"
			value = 80
		}
		ai_strategy = {
			type = contain
			id = "SUD"
			value = 80
		}
		ai_strategy = {
			type = contain
			id = "CHA"
			value = 80
		}
		ai_strategy = {
			type = contain
			id = "GUB"
			value = 80
		}
		ai_strategy = {
			type = contain
			id = "GUI"
			value = 80
		}
		ai_strategy = {
			type = contain
			id = "LBA"
			value = 80
		}
		ai_strategy = {
			type = contain
			id = "EGY"
			value = 80
		}
		#never befriend muslims
		ai_strategy = {
			type = befriend
			id = "TRK"
			value = -100
		}
		ai_strategy = {
			type = befriend
			id = "TAJ"
			value = -100
		}
		ai_strategy = {
			type = befriend
			id = "KYR"
			value = -100
		}
		ai_strategy = {
			type = befriend
			id = "AFG"
			value = -100
		}
		ai_strategy = {
			type = befriend
			id = "AZE"
			value = -100
		}
		ai_strategy = {
			type = befriend
			id = "BRU"
			value = -100
		}
		ai_strategy = {
			type = befriend
			id = "IND"
			value = -100
		}
		ai_strategy = {
			type = befriend
			id = "MAY"
			value = -100
		}
		ai_strategy = {
			type = befriend
			id = "PAK"
			value = -100
		}
		ai_strategy = {
			type = befriend
			id = "BAN"
			value = -100
		}
		ai_strategy = {
			type = befriend
			id = "SYR"
			value = -100
		}
		ai_strategy = {
			type = befriend
			id = "ISI"
			value = -100
		}
		ai_strategy = {
			type = befriend
			id = "FSA"
			value = -100
		}
		ai_strategy = {
			type = befriend
			id = "NUS"
			value = -100
		}
		ai_strategy = {
			type = befriend
			id = "ROJ"
			value = -100
		}
		ai_strategy = {
			type = befriend
			id = "KUR"
			value = -100
		}
		ai_strategy = {
			type = befriend
			id = "PER"
			value = -100
		}
		ai_strategy = {
			type = befriend
			id = "JOR"
			value = -100
		}
		ai_strategy = {
			type = befriend
			id = "QAT"
			value = -100
		}
		ai_strategy = {
			type = befriend
			id = "UAE"
			value = -100
		}
		ai_strategy = {
			type = befriend
			id = "KUW"
			value = -100
		}
		ai_strategy = {
			type = befriend
			id = "OMA"
			value = -100
		}
		ai_strategy = {
			type = befriend
			id = "HAM"
			value = -100
		}
		ai_strategy = {
			type = befriend
			id = "HOU"
			value = -100
		}
		ai_strategy = {
			type = befriend
			id = "AQY"
			value = -100
		}
		ai_strategy = {
			type = befriend
			id = "SAU"
			value = -100
		}
		ai_strategy = {
			type = befriend
			id = "IRQ"
			value = -100
		}
		ai_strategy = {
			type = befriend
			id = "LEB"
			value = -100
		}
		ai_strategy = {
			type = befriend
			id = "BHR"
			value = -100
		}
		ai_strategy = {
			type = befriend
			id = "YEM"
			value = -100
		}
		ai_strategy = {
			type = befriend
			id = "GNC"
			value = -100
		}
		ai_strategy = {
			type = befriend
			id = "GNA"
			value = -100
		}
		ai_strategy = {
			type = befriend
			id = "TUA"
			value = -100
		}
		ai_strategy = {
			type = befriend
			id = "HOR"
			value = -100
		}
		ai_strategy = {
			type = befriend
			id = "TUN"
			value = -100
		}
		ai_strategy = {
			type = befriend
			id = "ALG"
			value = -100
		}
		ai_strategy = {
			type = befriend
			id = "MOR"
			value = -100
		}
		ai_strategy = {
			type = befriend
			id = "SHA"
			value = -100
		}
		ai_strategy = {
			type = befriend
			id = "EGY"
			value = -100
		}
		ai_strategy = {
			type = befriend
			id = "MOR"
			value = -100
		}
		ai_strategy = {
			type = befriend
			id = "ALG"
			value = -100
		}
		ai_strategy = {
			type = befriend
			id = "TUN"
			value = -100
		}
		ai_strategy = {
			type = befriend
			id = "MAU"
			value = -100
		}
		ai_strategy = {
			type = befriend
			id = "MAL"
			value = -100
		}
		ai_strategy = {
			type = befriend
			id = "SEN"
			value = -100
		}
		ai_strategy = {
			type = befriend
			id = "GAM"
			value = -100
		}
		ai_strategy = {
			type = befriend
			id = "NGR"
			value = -100
		}
		ai_strategy = {
			type = befriend
			id = "ERI"
			value = -100
		}
		ai_strategy = {
			type = befriend
			id = "DJI"
			value = -100
		}
		ai_strategy = {
			type = befriend
			id = "SOM"
			value = -100
		}
		ai_strategy = {
			type = befriend
			id = "SUD"
			value = -100
		}
		ai_strategy = {
			type = befriend
			id = "CHA"
			value = -100
		}
		ai_strategy = {
			type = befriend
			id = "GUB"
			value = -100
		}
		ai_strategy = {
			type = befriend
			id = "GUI"
			value = -100
		}
		ai_strategy = {
			type = befriend
			id = "LBA"
			value = -100
		}
		ai_strategy = {
			type = befriend
			id = "EGY"
			value = -100
		}
		#never aid muslims
		ai_strategy = {
			type = send_volunteers_desire
			id = "TRK"
			value = -200
		}
		ai_strategy = {
			type = send_volunteers_desire
			id = "TAJ"
			value = -200
		}
		ai_strategy = {
			type = send_volunteers_desire
			id = "KYR"
			value = -200
		}
		ai_strategy = {
			type = send_volunteers_desire
			id = "AFG"
			value = -200
		}
		ai_strategy = {
			type = send_volunteers_desire
			id = "AZE"
			value = -200
		}
		ai_strategy = {
			type = send_volunteers_desire
			id = "BRU"
			value = -200
		}
		ai_strategy = {
			type = send_volunteers_desire
			id = "IND"
			value = -200
		}
		ai_strategy = {
			type = send_volunteers_desire
			id = "MAY"
			value = -200
		}
		ai_strategy = {
			type = send_volunteers_desire
			id = "PAK"
			value = -200
		}
		ai_strategy = {
			type = send_volunteers_desire
			id = "BAN"
			value = -200
		}
		ai_strategy = {
			type = send_volunteers_desire
			id = "SYR"
			value = -200
		}
		ai_strategy = {
			type = send_volunteers_desire
			id = "ISI"
			value = -200
		}
		ai_strategy = {
			type = send_volunteers_desire
			id = "FSA"
			value = -200
		}
		ai_strategy = {
			type = send_volunteers_desire
			id = "NUS"
			value = -200
		}
		ai_strategy = {
			type = send_volunteers_desire
			id = "ROJ"
			value = -200
		}
		ai_strategy = {
			type = send_volunteers_desire
			id = "KUR"
			value = -200
		}
		ai_strategy = {
			type = send_volunteers_desire
			id = "PER"
			value = -200
		}
		ai_strategy = {
			type = send_volunteers_desire
			id = "JOR"
			value = -200
		}
		ai_strategy = {
			type = send_volunteers_desire
			id = "QAT"
			value = -200
		}
		ai_strategy = {
			type = send_volunteers_desire
			id = "UAE"
			value = -200
		}
		ai_strategy = {
			type = send_volunteers_desire
			id = "KUW"
			value = -200
		}
		ai_strategy = {
			type = send_volunteers_desire
			id = "OMA"
			value = -200
		}
		ai_strategy = {
			type = send_volunteers_desire
			id = "HAM"
			value = -200
		}
		ai_strategy = {
			type = send_volunteers_desire
			id = "HOU"
			value = -200
		}
		ai_strategy = {
			type = send_volunteers_desire
			id = "AQY"
			value = -200
		}
		ai_strategy = {
			type = send_volunteers_desire
			id = "SAU"
			value = -200
		}
		ai_strategy = {
			type = send_volunteers_desire
			id = "IRQ"
			value = -200
		}
		ai_strategy = {
			type = send_volunteers_desire
			id = "LEB"
			value = -200
		}
		ai_strategy = {
			type = send_volunteers_desire
			id = "BHR"
			value = -200
		}
		ai_strategy = {
			type = send_volunteers_desire
			id = "YEM"
			value = -200
		}
		ai_strategy = {
			type = send_volunteers_desire
			id = "GNC"
			value = -200
		}
		ai_strategy = {
			type = send_volunteers_desire
			id = "GNA"
			value = -200
		}
		ai_strategy = {
			type = send_volunteers_desire
			id = "TUA"
			value = -200
		}
		ai_strategy = {
			type = send_volunteers_desire
			id = "HOR"
			value = -200
		}
		ai_strategy = {
			type = send_volunteers_desire
			id = "TUN"
			value = -200
		}
		ai_strategy = {
			type = send_volunteers_desire
			id = "ALG"
			value = -200
		}
		ai_strategy = {
			type = send_volunteers_desire
			id = "MOR"
			value = -200
		}
		ai_strategy = {
			type = send_volunteers_desire
			id = "SHA"
			value = -200
		}
		ai_strategy = {
			type = send_volunteers_desire
			id = "EGY"
			value = -200
		}
		ai_strategy = {
			type = send_volunteers_desire
			id = "MOR"
			value = -200
		}
		ai_strategy = {
			type = send_volunteers_desire
			id = "ALG"
			value = -200
		}
		ai_strategy = {
			type = send_volunteers_desire
			id = "TUN"
			value = -200
		}
		ai_strategy = {
			type = send_volunteers_desire
			id = "MAU"
			value = -200
		}
		ai_strategy = {
			type = send_volunteers_desire
			id = "MAL"
			value = -200
		}
		ai_strategy = {
			type = send_volunteers_desire
			id = "SEN"
			value = -200
		}
		ai_strategy = {
			type = send_volunteers_desire
			id = "GAM"
			value = -200
		}
		ai_strategy = {
			type = send_volunteers_desire
			id = "NGR"
			value = -200
		}
		ai_strategy = {
			type = send_volunteers_desire
			id = "ERI"
			value = -200
		}
		ai_strategy = {
			type = send_volunteers_desire
			id = "DJI"
			value = -200
		}
		ai_strategy = {
			type = send_volunteers_desire
			id = "SOM"
			value = -200
		}
		ai_strategy = {
			type = send_volunteers_desire
			id = "SUD"
			value = -200
		}
		ai_strategy = {
			type = send_volunteers_desire
			id = "CHA"
			value = -200
		}
		ai_strategy = {
			type = send_volunteers_desire
			id = "GUB"
			value = -200
		}
		ai_strategy = {
			type = send_volunteers_desire
			id = "GUI"
			value = -200
		}
		ai_strategy = {
			type = send_volunteers_desire
			id = "LBA"
			value = -200
		}
		ai_strategy = {
			type = send_volunteers_desire
			id = "EGY"
			value = -200
		}
		ai_will_do = {
			factor = 1
		}
	}

#Pro-various things
	pro_china = {
		random = no
		ai_strategy = {
			type = befriend
			id = "CHI"
			value = 100
		}
		ai_strategy = {
			type = alliance
			id = "USA"
			value = -100
		}
		ai_will_do = {
			factor = 1
		}
	}
	pro_east_africa = {
		random = no
		ai_strategy = {
			type = befriend
			id = "TNZ"
			value = 100
		}
		ai_strategy = {
			type = befriend
			id = "KEN"
			value = 100
		}
		ai_strategy = {
			type = befriend
			id = "UGA"
			value = 100
		}
		ai_strategy = {
			type = befriend
			id = "RWA"
			value = 100
		}
		ai_strategy = {
			type = befriend
			id = "BUR"
			value = 100
		}
		ai_will_do = {
			factor = 1
		}
	}
	pro_israel = {
		random = no
		ai_strategy = {
			type = befriend
			id = "ISR"
			value = 100
		}
		ai_will_do = {
			factor = 1
		}
	}
	anti_zionist = {
		random = no
		ai_strategy = {
			type = contain
			id = "ISR"
			value = 60
		}
		ai_strategy = {
			type = befriend
			id = "ISR"
			value = -60
		}
		ai_strategy = {
			type = antagonize
			id = "ISR"
			value = 200
		}
		ai_strategy = {
			type = conquer
			id = "ISR"
			value = 100
		}
		ai_will_do = {
			factor = 1
		}
	}
	pro_independence_taiwan = {
		random = no
		ai_strategy = {
			type = antagonize
			id = "CHI"
			value = 60
		}
		ai_strategy = {
			type = contain
			id = "CHI"
			value = 60
		}
		ai_strategy = {
			type = befriend
			id = "CHI"
			value = -60
		}
		ai_will_do = {
			factor = 1
		}
	}
	pro_russia = {
		random = no
		ai_strategy = {
			type = befriend
			id = "SOV"
			value = 100
		}
		ai_strategy = {
			type = alliance
			id = "USA"
			value = -100
		}
		ai_will_do = {
			factor = 1
		}
	}
	pro_american = {
		random = no
		ai_strategy = {
			type = befriend
			id = "USA"
			value = 100
		}
		ai_will_do = {
			factor = 1
		}
	}
	pro_brotherhood = {
		random = no
		ai_strategy = {
			type = befriend
			id = "TUR"
			value = 100
		}
		ai_strategy = {
			type = befriend
			id = "QAT"
			value = 100
		}
		ai_strategy = {
			type = befriend
			id = "HAM"
			value = 100
		}
		ai_will_do = {
			factor = 1
		}
	}
	opposes_muslim_brotherhood = {
		random = no
		ai_strategy = {
			type = contain
			id = "TUR"
			value = 100
		}
		ai_strategy = {
			type = contain
			id = "QAT"
			value = 100
		}
		ai_strategy = {
			type = contain
			id = "HAM"
			value = 100
		}
		neutrality_acceptance = -15
		ai_will_do = {
			factor = 1
		}
	}
	pro_iranian = {
		random = no
		ai_strategy = {
			type = befriend
			id = "PER"
			value = 100
		}
		ai_strategy = {
			type = befriend
			id = "HEZ"
			value = 100
		}
		ai_strategy = {
			type = alliance
			id = "SAU"
			value = -100
		}
		ai_strategy = {
			type = alliance
			id = "ISR"
			value = -100
		}
		ai_strategy = {
			type = alliance
			id = "USA"
			value = -100
		}
		ai_will_do = {
			factor = 1
		}
	}
	pro_isis = {
		random = no
		ai_strategy = {
			type = befriend
			id = "ISI"
			value = 100
		}
		ai_will_do = {
			factor = 1
		}
	}
	pro_al_qaeda = {
		random = no
		ai_strategy = {
			type = befriend
			id = "AQY"
			value = 100
		}
		ai_strategy = {
			type = befriend
			id = "TAL"
			value = 100
		}
		ai_strategy = {
			type = befriend
			id = "TTP"
			value = 100
		}
		ai_strategy = {
			type = befriend
			id = "NUS"
			value = 100
		}
		ai_strategy = {
			type = befriend
			id = "ISI"
			value = -100
		}
		ai_strategy = {
			type = alliance
			id = "ISI"
			value = -100
		}
		ai_will_do = {
			factor = 1
		}
	}
	pro_saudi = {
		random = no
		ai_strategy = {
			type = befriend
			id = "SAU"
			value = 100
		}
		ai_strategy = {
			type = befriend
			id = "PER"
			value = -100
		}
		ai_strategy = {
			type = alliance
			id = "PER"
			value = -100
		}
		ai_will_do = {
			factor = 1
		}
	}
	pro_east_africa = {
		random = no
		ai_strategy = {
			type = befriend
			id = "TNZ"
			value = 100
		}
		ai_strategy = {
			type = befriend
			id = "KEN"
			value = 100
		}
		ai_strategy = {
			type = befriend
			id = "UGA"
			value = 100
		}
		ai_strategy = {
			type = befriend
			id = "RWA"
			value = 100
		}
		ai_strategy = {
			type = befriend
			id = "BUR"
			value = 100
		}

		ai_will_do = {
			factor = 1
		}
	}

#### Background traits ####

	businessman = {
		random = yes
		production_speed_buildings_factor = 0.05
		production_speed_offices_factor = 0.05
		ai_will_do = {
			factor = 1
		}
	}
	diplomat = {
		random = yes

		ai_will_do = {
			factor = 1
		}
	}
	lawyer = {
		random = yes
		police_cost_multiplier_modifier = -0.05
		stability_factor = 0.05
		ai_will_do = {
			factor = 1
		}
	}
	ex_engineer = {
		random = yes
		production_speed_buildings_factor = 0.05
		production_speed_industrial_complex_factor = 0.05
		production_speed_infrastructure_factor = 0.05
		ai_will_do = {
			factor = 1
		}
	}
	scientist = {
		random = yes
		research_speed_factor = 0.1
		education_cost_multiplier_modifier = -0.05
		ai_will_do = {
			factor = 1
		}
	}
	scientist_engineer = {
		random = no
		research_speed_factor = 0.1
		education_cost_multiplier_modifier = -0.05
		ai_will_do = {
			factor = 1
		}
	}
	doctor = {
		random = yes
		MONTHLY_POPULATION = 0.1
		health_cost_multiplier_modifier = -0.05
		ai_will_do = {
			factor = 1
		}
	}
	writer = {
		random = yes
		education_cost_multiplier_modifier = -0.05
		stability_factor = 0.05
		ai_will_do = {
			factor = 1
		}
	}
	economist = {
		random = yes
		economic_cycles_cost_factor = -0.1
		econ_cycle_upg_cost_multiplier_modifier = -0.1
		interest_rate_multiplier_modifier = -1
		ai_will_do = {
			factor = 1
		}
	}
	spy = {
		random = yes
		foreign_influence_modifier = 0.1
		ai_will_do = {
			factor = 1
		}
	}
	military_career = {
		random = yes
		personnel_cost_multiplier_modifier = -0.05
		ai_will_do = {
			factor = 1
		}
	}
	guerrilla_leader = {
		random = yes
		army_attack_factor = 0.05
		subversive_activites_upkeep = -0.25
		ai_will_do = {
			factor = 1
		}
	}
	king = {
		random = no
		ai_will_do = {
			factor = 1
		}
	}
	cleric = {
		random = yes
		social_cost_multiplier_modifier = -0.05
		ai_will_do = {
			factor = 1
		}
	}
	career_politician = {
		random = yes
		political_power_factor = 0.1
		ai_will_do = {
			factor = 1
		}
	}
	actor_politician = {
		random = yes
		political_power_factor = 0.05
		ai_will_do = {
			factor = 1
		}
	}
	union_man = {
		random = no
		social_cost_multiplier_modifier = -0.05
		ai_will_do = {
			factor = 1
		}
	}
	elder = {
		random = no
		political_power_factor = 0.05
		stability_factor = 0.05
		ai_will_do = {
			factor = 1
		}
	}
	judiciary = {
		random = no
		police_cost_multiplier_modifier = -0.05
		stability_factor = 0.05
		ai_will_do = {
			factor = 1
		}
	}
	teacher = {
		random = yes

		ai_will_do = {
			factor = 1
		}
	}

	archaeologist = {
		random = yes

		ai_will_do = {
			factor = 1
		}
	}

	farmer = {
		random = no

		ai_will_do = {
			factor = 1
		}
	}

#### old traits ###
	warrior_code = {
		random = no
		ai_call_ally_desire_factor = -40
		ai_will_do = {
			factor = 1
		}
	}
	stout_defender = { # This particular trait will make the AI heavily prioritize defensive warfare, rarely, if ever, attacking out of fortified locations
		random = no
		ai_focus_defense_factor = 0.5
		ai_will_do = {
			factor = 1
		}
	}
	warmonger = {
		random = no
		ai_focus_aggressive_factor = 0.5
		ai_will_do = {
			factor = 1
		}
	}
	inexperienced_imperialist = {
		random = no
		political_power_factor = -0.3
		stability_factor = 0.05
		justify_war_goal_time = -0.25
		ai_will_do = {
			factor = 1
		}
	}
	spirit_of_genghis = {
		random = no
		cavalry_attack_factor = 0.05
		# equipment_bonus = {
		# 	nav_bomber_equipment = {
		# 		air_range = 0.1 naval_strike_attack = 0.1
		# 	}
		# }
		ai_will_do = {
			factor = 1
		}
	}
	dislikes_germany = {
		random = no
		ai_strategy = {
			type = antagonize
			id = "GER"
			value = 200
		}
		ai_will_do = {
			factor = 1
		}
	}
	tenacious_defender = {
		random = no
		ai_will_do = {
			factor = 1
		}
	}
	political_prisoner = {
		random = no
		ai_will_do = {
			factor = 1
		}
	}
	assassination_survivor = {
		random = no
		ai_will_do = {
			factor = 1
		}
	}

### IDEA TRAITS ###
	communist_revolutionary = {
		random = no
		communism_drift = 0.1
		ai_will_do = {
			factor = 0
		}
	}
	communist_sympathizer = {
		random = no
		communism_drift = 0.01
		ai_will_do = {
			factor = 0
		}
	}
	democratic_reformer = {
		random = no
		democratic_drift = 0.1
		ai_will_do = {
			factor = 0
		}
	}
	fascist_demagogue = {
		random = no
		fascism_drift = 0.1
		ai_will_do = {
			factor = 0
		}
	}
	popular_figurehead = {
		random = yes
		stability_factor = 0.15
		ai_will_do = {
			factor = 1
		}
	}
	silent_workhorse = {
		random = yes
		political_power_factor = 0.15
		ai_will_do = {
			factor = 1
		}
	}
	prince_of_terror = {
		random = yes
		resistance_damage_to_garrison = -0.25
		foreign_subversive_activites = -0.3
		ai_will_do = {
			factor = 1
		}
	}
	compassionate_gentleman = {
		random = yes
		opinion_gain_monthly_factor = 0.15
		ai_will_do = {
			factor = 1
		}
	}
	backroom_backstabber = {
		random = yes
		political_power_factor = 0.05
		drift_defence_factor = 0.15
		ai_will_do = {
			factor = 1
		}
	}
	smooth_talking_charmer = {
		random = yes
		trade_opinion_factor = 0.10
		ai_will_do = {
			factor = 1
		}
	}
	ideological_crusader = {
		random = yes
		opinion_gain_monthly_same_ideology_factor = 1.0
		ai_will_do = {
			factor = 1
		}
	}
	fortification_engineer = {
		random = yes
		production_speed_bunker_factor = 0.2
		production_speed_coastal_bunker_factor = 0.2
		production_speed_anti_air_building_factor = 0.2
		ai_will_do = {
			factor = 1
		}
	}
	war_industrialist = {
		random = yes
		production_speed_arms_factory_factor = 0.1
		production_speed_dockyard_factor = 0.1
		ai_will_do = {
			factor = 1
		}
	}
	captain_of_industry = {
		random = yes
		production_speed_industrial_complex_factor = 0.1
		production_speed_offices_factor = 0.1
		production_speed_infrastructure_factor = 0.1
		ai_will_do = {
			factor = 1
		}
	}
	armaments_organizer = {
		random = yes
		conversion_cost_civ_to_mil_factor = -0.2
		ai_will_do = {
			factor = 1
		}
	}
	quartermaster_general = {
		random = yes
		production_speed_air_base_factor = 0.15
		production_speed_naval_base_factor = 0.15
		production_speed_anti_air_building_factor = 0.15
		production_speed_radar_station_factor = 0.15
		production_speed_nuclear_reactor_factor = 0.15
		ai_will_do = {
			factor = 1
		}
	}
	experienced_banker = {
		random = yes
		production_speed_offices_factor = 0.10
		interest_rate_multiplier_modifier = -1
		ai_will_do = {
			factor = 1
		}
	}
	defender_of_democracy = {
		random = yes
		stability_factor = 0.1
		democratic_drift = 0.02
		neutrality_drift = 0.02
		ai_will_do = {
			factor = 1
		}
	}
	island_warlord = {
		random = no
		production_speed_bunker_factor = 0.2
		production_speed_coastal_bunker_factor = 0.2
		production_speed_anti_air_building_factor = 0.2
		ai_will_do = {
			factor = 1
		}
	}

	simeonII_trait = {
		random = no
		opinion_gain_monthly_factor = 0.15
		economic_cycles_cost_factor = -0.1
		econ_cycle_upg_cost_multiplier_modifier = -0.1
		interest_rate_multiplier_modifier = -1
		ai_will_do = {
			factor = 1
		}
	}

	elbasy = {
		random = no
		ai_focus_aggressive_factor = 0.2
		ai_will_do = {
			factor = 1
		}
	}

	yurtbashi = {
		random = no
		ai_focus_aggressive_factor = 0.2
		ai_will_do = {
			factor = 1
		}
	}

	Pro_Western = {

	}
	Fighter = {

	}
	Reformer = {

	}
}