leader_traits = {

	kgosikgolo_leader_trait = {
		random = no
		political_power_factor = 0.05
		stability_factor = 0.10
		nationalist_drift = 0.05
		corruption_cost_factor = 0.15

		ai_will_do = {
			factor = 1
		}
	}

}