﻿army = {
	gfx = GFX_theatre_army_shield
	icon = {
		#Example of icon script, corresponding to the frame index in the .dds files
		#color_override = no
		#name = "EQUAL_ICON"
		#available = {
		#	tag = CHI
		#}
	}
	icon = { }
	icon = { }
	icon = { }
	icon = { }
	icon = { }
	icon = { }
	icon = { }
	icon = { }
	icon = { }
	icon = { }
	icon = { }
	icon = { }
	icon = { }
	icon = {
		color_override = no
		name = "4. Armee"
		available = {
			tag = GER
		}
	}
	icon = {
		color_override = no
		name = "16. Armee"
		available = {
			tag = GER
		}
	}
	icon = {
		color_override = no
		name = "1. Panzerarmee"
		available = {
			tag = GER
		}
	}
	icon = {
		color_override = no
		name = "V. Armeekorps"
		available = {
			tag = GER
		}
	}
	icon = {
		color_override = no
		name = "6. Armee"
		available = {
			tag = GER
		}
	}
	icon = {
		color_override = no
		name = "7. Armee"
		available = {
			tag = GER
		}
	}
	icon = {
		color_override = no
		name = "2. Armee"
		available = {
			tag = GER
		}
	}
	icon = {
		color_override = no
		name = "2. Panzerarmee"
		available = {
			tag = GER
		}
	}
	icon = {
		color_override = no
		name = "10. Armee"
		available = {
			tag = GER
		}
	}
	icon = {
		color_override = no
		name = "11. Armee"
		available = {
			tag = GER
		}
	}
	icon = {
		color_override = no
		name = "14. Armee"
		available = {
			tag = GER
		}
	}
	icon = {
		color_override = no
		name = "17. Armee"
		available = {
			tag = GER
		}
	}
	icon = {
		color_override = no
		name = "18. Armee"
		available = {
			tag = GER
		}
	}
	icon = {
		color_override = no
		name = "Panzergruppe H"
		available = {
			tag = GER
		}
	}
	icon = {
		color_override = no
		name = "Panzergruppe E"
		available = {
			tag = GER
		}
	}
	icon = {
		color_override = no
		name = "Panzergruppe Z"
		available = {
			tag = GER
		}
	}
	icon = {
		color_override = no
		name = "Panzergruppe A"
		available = {
			tag = GER
		}
	}
	icon = {
		color_override = no
		name = "Panzergruppe D"
		available = {
			tag = GER
		}
	}
	icon = {
		color_override = no
		name = "First Army"
		available = {
			tag = ENG
		}
	}
	icon = {
		color_override = no
		name = "Second Army"
		available = {
			tag = ENG
		}
	}
	icon = {
		color_override = no
		name = "Eighth Army"
		available = {
			tag = ENG
		}
	}
	icon = {
		color_override = no
		name = "Tenth Army"
		available = {
			tag = ENG
		}
	}
	icon = {
		color_override = no
		name = "Fourteenth Army"
		available = {
			tag = ENG
		}
	}
	icon = {
		color_override = no
		name = "Northern Command"
		available = {
			tag = ENG
		}
	}
	icon = {
		color_override = no
		name = "Eastern Command"
		available = {
			tag = ENG
		}
	}
	icon = {
		color_override = no
		name = "Western Command"
		available = {
			tag = ENG
		}
	}
	icon = {
		color_override = no
		name = "Southern Command"
		available = {
			tag = ENG
		}
	}
	icon = {
		color_override = no
		name = "Aldershot Command"
		available = {
			tag = ENG
		}
	}
	icon = {
		color_override = no
		name = "Scottish Command"
		available = {
			tag = ENG
		}
	}
	icon = {
		color_override = no
		name = "8th Army"
		available = {
			tag = USA
		}
	}
	icon = {
		color_override = no
		name = "1st Army"
		available = {
			tag = USA
		}
	}
	icon = {
		color_override = no
		name = "2nd Army"
		available = {
			tag = USA
		}
	}
	icon = {
		color_override = no
		name = "3rd Army"
		available = {
			tag = USA
		}
	}
	icon = {
		color_override = no
		name = "5th Army"
		available = {
			tag = USA
		}
	}
	icon = {
		color_override = no
		name = "6th Army"
		available = {
			tag = USA
		}
	}
	icon = {
		color_override = no
		name = "7th Army"
		available = {
			tag = USA
		}
	}
	icon = {
		color_override = no
		name = "9th Army"
		available = {
			tag = USA
		}
	}
	icon = {
		color_override = no
		name = "1re Armée"
		available = {
			tag = FRA
		}
	}
	icon = {
		color_override = no
		name = "Forces françaises libres"
		available = {
			tag = FRA
		}
	}
	icon = {
		color_override = no
		name = "2e Armée"
		available = {
			tag = FRA
		}
	}
	icon = {
		color_override = no
		name = "1. Allied Army"
		available = {
			has_government = democratic
		}
	}
	icon = {
		color_override = no
		name = "1. Homeland Defense Army"
		available = {
			has_government = fascism
		}
	}
	icon = {
		color_override = no
		name = "Sunflower Defense Corps"
		available = {
			has_government = neutrality
		}
	}
	icon = {
		color_override = no
		name = "I. Army"
		available = {
			NOT = {
				tag = FRA
				tag = GER
				tag = ENG
				tag = USA
				tag = SOV
			}
		}
	}
	icon = {
		color_override = no
		name = "II. Army"
		available = {
			NOT = {
				tag = FRA
				tag = GER
				tag = ENG
				tag = USA
				tag = SOV
			}
		}
	}
	icon = {
		color_override = no
		name = "III. Army"
		available = {
			NOT = {
				tag = FRA
				tag = GER
				tag = ENG
				tag = USA
				tag = SOV
			}
		}
	}
	icon = {
		color_override = no
		name = "1. Celestial Penetration Army"
		available = {
			has_government = fascism
		}
	}
	icon = {
		color_override = no
		name = "1. Liberation Army"
		available = {
			has_government = communism
		}
	}
	icon = {
		color_override = no
		name = "IV. Army"
		available = {
			NOT = {
				tag = FRA
				tag = GER
				tag = ENG
				tag = USA
				tag = SOV
			}
		}
	}
	icon = {
		color_override = no
		name = "V. Army"
		available = {
			NOT = {
				tag = FRA
				tag = GER
				tag = ENG
				tag = USA
				tag = SOV
			}
		}
	}
	icon = {
		color_override = no
		name = "7. Guards"
		available = {
			tag = SOV
		}
	}
	icon = {
		color_override = no
		name = "41. Guards"
		available = {
			tag = SOV
		}
	}
	icon = {
		color_override = no
		name = "90. Tanks"
		available = {
			tag = SOV
		}
	}
	icon = {
		color_override = no
		name = "8. Artillery"
		available = {
			tag = SOV
		}
	}
	icon = {
		color_override = no
		name = "1443. Artillery"
		available = {
			tag = SOV
		}
	}
	icon = {
		color_override = no
		name = "76. Tanks"
		available = {
			tag = SOV
		}
	}
	icon = {
		color_override = no
		name = "3. Guards Mechanized"
		available = {
			tag = SOV
		}
	}
	icon = {
		color_override = no
		name = "3. Tanks"
		available = {
			tag = SOV
		}
	}
	icon = {
		color_override = no
		name = "213. Tanks"
		available = {
			tag = SOV
		}
	}
	icon = {
		color_override = no
		name = "8. Mechanized"
		available = {
			tag = SOV
		}
	}
	icon = {
		color_override = no
		name = "Turkish 1"
		available = {
			has_dlc = "Battle for the Bosporus"
			tag = TUR
		}
	}
	icon = {
		color_override = no
		name = "Turkish 2"
		available = {
			has_dlc = "Battle for the Bosporus"
			tag = TUR
		}
	}
	icon = {
		color_override = no
		name = "Greek 1"
		available = {
			has_dlc = "Battle for the Bosporus"
			tag = GRE
		}
	}
	icon = {
		color_override = no
		name = "Greek 2"
		available = {
			has_dlc = "Battle for the Bosporus"
			tag = GRE
		}
	}
	icon = {
		color_override = no
		name = "Greek 3"
		available = {
			has_dlc = "Battle for the Bosporus"
			tag = GRE
		}
	}
	icon = {
		color_override = no
		name = "Bulgarian 1"
		available = {
			has_dlc = "Battle for the Bosporus"
			tag = BUL
		}
	}
	icon = {
		color_override = no
		name = "Bulgarian 2"
		available = {
			has_dlc = "Battle for the Bosporus"
			tag = BUL
		}
	}
	icon = {
		color_override = no
		name = "Velitelství pozemních sil (Ground Forces Command)"
		available = {
			tag = CZE
		}
	}
	icon = {
		color_override = no
		name = "Hlavní velitelství Vojenské policie (Military Police High Command)"
		available = {
			tag = CZE
		}
	}
	icon = {
		color_override = no
		name = "Ředitelství speciálních sil (Special Forces Directorate)"
		available = {
			tag = CZE
		}
	}
	icon = {
		color_override = no
		name = "Velitelství pro operace (Command for Operations)"
		available = {
			tag = CZE
		}
	}
	icon = {
		color_override = no
		name = "Velitelství teritoria (Territory Command)"
		available = {
			tag = CZE
		}
	}
	icon = {
		color_override = no
		name = "Veliteľstvo síl pre špeciálne operácie (Special Operations Forces Command)"
		available = {
			tag = SLO
		}
	}
	icon = {
		color_override = no
		name = "Veliteľstvo posádky Bratislava (Command of Garrison Bratislava)"
		available = {
			tag = SLO
		}
	}
	icon = {
		color_override = no
		name = "Velitelství sil podpory (Support Forces Command)"
		available = {
			tag = CZE
		}
	}
	icon = {
		color_override = no
		name = "Velitelství sil územní obrany (Territorial Defence Forces Command)"
		available = {
			tag = CZE
		}
	}
	icon = {
		color_override = no
		name = "Spojovacie Veliteľstvo (Signal Command)"
		available = {
			tag = SLO
		}
	}
	icon = {
		color_override = no
		name = "Veliteľstvo síl výcviku a podpory (Training and Support Forces Command)"
		available = {
			tag = SLO
		}
	}
	icon = {
		color_override = no
		name = "Velitelství vojska územní obrany (Territorial Defence Army Command)"
		available = {
			tag = CZE
		}
	}
	icon = {
		color_override = no
		name = "4. velitelství pro výcvik a tvorbu doktrín (4th Training and Doctrine Command)"
		available = {
			tag = CZE
		}
	}
	icon = {
		color_override = yes
		name = "Lauriel"
		available = {
			tag = ARM
		}
	}
	icon = {
		color_override = no
		name = "Armenian Flag"
		available = {
			tag = ARM
		}
	}
	icon = {
		color_override = no
		name = "Artsakh Defense Forces"
		available = {
			tag = ARM
		}
	}
	icon = {
		color_override = no
		name = "Armenian Special Forces"
		available = {
			tag = ARM
		}
	}
	icon = {
		color_override = no
		name = "Armenian Army"
		available = {
			tag = ARM
		}
	}
	icon = {
		color_override = no
		name = "Armenian Special Forces 2"
		available = {
			tag = ARM
		}
	}
}

army_group = {
	gfx = GFX_theatre_army_group_shield

	icon = { }
	icon = {
		color_override = no
	}
	icon = {
		color_override = no
		name = "15. Army Group"
	}
	icon = {
		color_override = no
		name = "12. Army Group"
	}
	icon = {
		color_override = no
		name = "6. Army Group"
	}
	icon = {
		color_override = no
	}
	icon = {
		color_override = no
		name = "Velitelství společných sil (Joint Forces Command)"
		available = {
			tag = CZE
		}
	}
	icon = {
		color_override = no
		name = "Veliteľstvo pozemných síl (Land Forces Command)"
		available = {
			tag = SLO
		}
	}
}

fleet = {
	gfx = GFX_theatre_task_force_shield

	icon = { }
	icon = { }
	icon = { }
	icon = { }
	icon = { }
	icon = { }
	icon = { }
	icon = { }
	icon = { }
	icon = { }
	icon = { }
	icon = { }
	icon = { }
	icon = { }
	icon = { }
	icon = { }
	icon = { }
	icon = { }
	icon = { }
	icon = { }
	icon = { }
	icon = { }
	icon = { }
	icon = { }
	icon = { }
	icon = { }
	icon = { }
	icon = { }
	icon = { }
	icon = { }
	icon = { }
}

task_force = {
	gfx = GFX_theatre_task_force_shield

	icon = { }
	icon = { }
	icon = { }
	icon = { }
	icon = { }
	icon = { }
	icon = { }
	icon = { }
	icon = { }
	icon = { }
	icon = { }
	icon = { }
	icon = { }
	icon = { }
	icon = { }
	icon = { }
	icon = { }
	icon = { }
	icon = { }
	icon = { }
	icon = { }
	icon = { }
	icon = { }
	icon = { }
	icon = { }
	icon = { }
	icon = { }
	icon = { }
	icon = { }
	icon = { }
	icon = { }
}

naval_equipment_role = {
	gfx = GFX_naval_equipment_role_icons

	icon = {
		color_override = no
		name = "Battery"
	}
	icon = {
		color_override = no
		name = "Shield"
	}
	icon = {
		color_override = no
		name = "Spotter"
	}
	icon = {
		color_override = no
		name = "Minelayer"
	}
	icon = {
		color_override = no
		name = "Minesweeper"
	}
	icon = {
		color_override = no
		name = "Skull"
	}
	icon = {
		color_override = no
		name = "Airplane"
	}
	icon = {
		color_override = no
		name = "Crab"
	}
}

equipment_niche_insignias = {
	gfx = GFX_niche_icon_strip

	icon = { }
	icon = { }
	icon = { }
	icon = { }
	icon = { }
	icon = { }
	icon = { }
	icon = { }
	icon = { }
	icon = { }
}

air_group = {
	gfx = GFX_theatre_air_force_shield

	icon = { }
	icon = { }
	icon = { }
	icon = { }
	icon = { }
	icon = { }
	icon = { }
	icon = { }
	icon = { }
	icon = { }
	icon = { }
	icon = { }
	icon = { }
	icon = { }
	icon = { }
	icon = { }
	icon = { }
	icon = { }
	icon = { }
	icon = { }
	icon = { }
	icon = { }
	icon = { }
	icon = { }
	icon = { }
	icon = { }
	icon = { }
	icon = { }
	icon = { }
	icon = {
		color_override = no
		name = "4. Základna Taktického Letectva 'Zvolenská' (4th Tactical Air Force Base)"
		available = {
			tag = CZE
		}
	}
	icon = {
		color_override = no
		name = "32. Základna Taktického Letectva 'Biskajská' (Tactical Air Force Base)"
		available = {
			tag = CZE
		}
	}
	icon = {
		color_override = no
		name = "33. Základna Vrtulníkového Letectva 'Edvarda Beneše' (Helicopter Air Force Base)"
		available = {
			tag = CZE
		}
	}
	icon = {
		color_override = no
		name = "34. Základna Školního Letectva (School Air Force Base)"
		available = {
			tag = CZE
		}
	}
	icon = {
		color_override = no
		name = "6. Základna Dopravního Letectva 'T. G. Masaryka' (Transport Air Force Base)"
		available = {
			tag = CZE
		}
	}
	icon = {
		color_override = no
		name = "21. Základna Taktického Letectva 'Zvolenská' (Tactical Air Force Base)"
		available = {
			tag = CZE
		}
	}
	icon = {
		color_override = no
		name = "22. Základna Vrtulníkového Letectva 'Biskajská' (Helicopter Air Force Base)"
		available = {
			tag = CZE
		}
	}
	icon = {
		color_override = no
		name = "24. Základna Dopravního Letectva 'T. G. Masaryka' (Transport Air Force Base)"
		available = {
			tag = CZE
		}
	}

}

air_niche = {
	gfx = GFX_plane_niche_icon_strip

	icon = { }
	icon = { }
	icon = { }
	icon = { }
	icon = { }
	icon = { }
	icon = { }
	icon = { }
}
