bookmarks = {
	bookmark = {
		name = "MODERN_DAY_NAME"
		desc = "MODERN_DAY_DESC"
		date = 2017.1.1.12
		picture = "GFX_select_date_1939"
		default_country = "USA"

		"CHI" = {
			history = "CHI_MODERN_DAY_DESC"
			ideology = communism
			ideas = {
				chastity_paifang
				party_commands_gun
				CHI_low_end_manufacturing
			}
			focuses = {
				CHI_A_New_Imperium
				CHI_New_Era_PLA
				CHI_Outer_Mongolia_Return
			}
		}
		"SOV" = {
			history = "SOV_MODERN_DAY_DESC"
			ideology = communism
			ideas = {
				orthodox_christian
				russian_legacy
				p5_member
			}
			focuses = {
				SOV_putinism
				SOV_navalny
			}
		}
		"BRA" = {
			history = "BRA_MODERN_DAY_DESC"
			ideology = communism
			ideas = {
				BRA_idea_brazilian_knack
				BRA_idea_nossa_economia
				BRA_idea_mercosur_member_state
			}
			focuses = {
				BRA_restauration
				BRA_bolsonarismo
				BRA_cardoso_legacy
			}
		}
		"ITA" = {
			history = "ITA_MODERN_DAY_DESC"
			ideology = democratic
			ideas = {
				NATO_member
				EU_member
				ITA_mafia
			}
			focuses = {
				ITA_reestablish_rome
				ITA_our_past
				ITA_what_we_are
			}
		}
		"PER" = {
			history = "PER_MODERN_DAY_DESC"
			ideology = communism
			ideas = {
				birthplace_islamic_revolution
				faction_resistance_axis_member
				the_holy_defence
			}
			focuses = {
				PER_destroy_zionist_supporters
				PER_islamic_revolutionary_guards_corps
				PER_fund_shia_militias
			}
		}
		"SPR" = {
			history = "SPR_MILLENNIUM_DAWN_DESC"
			ideology = democratic
			ideas = {
				SPR_idea_regional_autonomy
				SPR_idea_grey_market
				SPR_deindustrialization
			}
			focuses = {
				SPR_nuestra_identidad
				SPR_nacion_unidad_imperio
				SPR_coffee_for_all
			}
		}
		"FRA" = {
			history = "FRA_MODERN_DAY_DESC"
			ideology = democratic
			ideas = {
				pluralist
				Migrant_Crisis_Europe
				g7_member
			}
			focuses = {
				FRA_fraternity
				FRA_equality
				FRA_liberty
			}
		}
		"USA" = {
			history = "USA_MODERN_DAY_DESC"
			ideology = democratic
			ideas = {
				christian
				land_of_the_free
				p5_member
			}
			focuses = {
				USA_focus_ending_clintonomics
				USA_focus_the_2000_joint_exercises
				USA_focus_foreign_policy
			}
		}
		"---" = {
			minor = yes
			history = "OTHER_MODERN_DAY_DESC"
		}
		"ENG" = {
			minor = yes
			history = "ENG_MODERN_DAY_DESC"
			ideology = democratic
			ideas = {
				pluralist
				EU_member
				g7_member
			}
			focuses = {
				ENG_the_future_of_britain
				ENG_brexit_referendum
				ENG_vitalize_westminster
			}
		}
		"JAP" = {
			minor = yes
			history = "JAP_MODERN_DAY_DESC"
			ideology = democratic
			ideas = {
				article_nine_jap
				idea_JAP_emperor_akihito
				JAP_deflation
			}
			focuses = {
				JAP_new_imperial_society
				JAP_popular_state
				JAP_democratic_state
			}
		}
		"CAN" = {
			minor = yes
			history = "CAN_MODERN_DAY_DESC"
			ideology = democratic
			ideas = {
				NATO_member
				CAN_native_policy_idea
				CAN_low_french_happiness
			}
			focuses = {
				CAN_Canadian_Economy
				CAN_Trans_Canada_Highway_Expansion
				CAN_Heavy_Industries_Focus
			}
		}
		"DEN" = {
			minor = yes
			history = "DEN_MODERN_DAY_DESC"
			ideology = democratic
			ideas = {
				EU_member
				NATO_member
			}
			focuses = {
#				DEN_green_rising
#				DEN_fund_DR
#				DEN_return_to_old
			}
		}
		"FIN" = {
			minor = yes
			history = "FIN_MODERN_DAY_DESC"
			ideology = democratic
			ideas = {
				EU_member
				finnish_neutrality
				FIN_conscription
			}
			focuses = {
				FIN_government_expansion
				FIN_leopard_2a4_imports
				FIN_greater_finland
			}
		}
		"NOR" = {
			minor = yes
			history = "NOR_MODERN_DAY_DESC"
			ideology = neutrality
			ideas = {
				NATO_member
			}
			focuses = {
			}
		}
		"SWE" = {
			minor = yes
			history = "SWE_MODERN_DAY_DESC"
			ideology = democratic
			ideas = {
				EU_member
			}
			focuses = {
				SWE_northern_friendship
				SWE_oresund_bridge
				SWE_improve_the_stridsvagn_122
			}
		}
		"GRE" = {
			minor = yes
			history = "GRE_MODERN_DAY_DESC"
			ideology = democratic
			ideas = {
				orthodox_christian
				EU_member
				NATO_member
			}
			focuses = {
				GRE_golden_dawn
				GRE_kke
				GRE_the_hellenic_republic
			}
		}
		"POL" = {
			minor = yes
			history = "POL_MODERN_DAY_DESC"
			ideology = democratic
			ideas = {
				christian
				NATO_member
				EU_member
			}
			focuses = {
				POL_proclaim_forth_rp
				POL_anti_russian_front
				POL_truly_eu_state
			}
		}
		"SWI" = {
			minor = yes
			history = "SWI_MODERN_DAY_DESC"
			ideology = neutrality
			ideas = {
				SWI_swiss_neutrality
				swiss_political_system
				multi_ethnic_state_idea
			}
			focuses = {
				SWI_join_schengen
				SWI_economic_relations_in_the_alps
				SWI_european_tank_license
			}
		}
		"UKR" = {
			minor = yes
			history = "UKR_MODERN_DAY_DESC"
			ideology = neutrality
			ideas = {
				orthodox_christian
				UKR_idea_government_in_need
				UKR_kleptocracy
			}
			focuses = {
				UKR_legacy_of_the_revolution_of_dignity
				UKR_war_on_donbass_experience
				UKR_take_lead_at_national_revival
			}
		}
		"ETH" = {
			minor = yes
			history = "ETH_MODERN_DAY_DESC"
			ideology = communism
			ideas = {
				AU_member
				USA_usaid
				multi_ethnic_state_idea
			}
			focuses = {
				ETH_invite_zera_yacob
				ETH_declare_mengistu_innocent
				ETH_expand_the_etaf
			}
		}
		"NIG" = {
			minor = yes
			history = "NIG_MODERN_DAY_DESC"
			ideology = democratic
			ideas = {
				fifty_fifty_divide
				NIG_unrestrained_piracy_idea
				AU_member
			}
			focuses = {
				NIG_bankers_of_africa
				NIG_nigerian_socialism
				NIG_rise_of_boko_haram
			}
		}
		# "ISR" = {
		# 	minor = yes
		# 	history = "ISR_MODERN_DAY_DESC"
		# 	ideology = democratic
		# 	ideas = {
		# 		judaism
		# 		palestinian_resistance
		# 		Major_Non_NATO_Ally
		# 	}
		# 	focuses = {
		# 		ISR_the_two_state_solution
		# 		ISR_targeted_assassinations
		# 		ISR_the_jewish_state
		# 	}
		# }
		"SYR" = {
			minor = yes
			history = "SYR_MODERN_DAY_DESC"
			ideology = communism
			ideas = {
				shia
				alawite_high_command
				divided_syria
			}
			focuses = {
				SYR_assad_day
				SYR_the_resistance_axis
				SYR_russian_military_cooperation
			}
		}
		"FSA" = {
			minor = yes
			history = "FSA_MODERN_DAY_DESC"
			ideology = neutrality
			ideas = {
				sunni
				youth_radicalization
				al_jazeera_allowed
			}
			focuses = {
				SYR_free_syria
				SYR_rebuild_economy
				SYR_join_war_on_terror
			}
		}
		"NUS" = {
			minor = yes
			history = "NUS_MODERN_DAY_DESC"
			ideology = fascism
			ideas = {
				sunni
				youth_radicalization
				al_jazeera_banned
			}
			focuses = {
				SYR_islamic_emirate
				SYR_loan_money_saudi
				SYR_levant_defence_pact
			}
		}
		"BHR" = {
			minor = yes
			history = "BHR_MODERN_DAY_DESC"
			ideology = democratic
			ideas = {
				home_of_the_baharna
				unrepresentative_government_sunni
				shia_resistance_05
			}
			focuses = {
				GCC_arrest_prominent_shia_clerics
				GCC_favor_the_shiraziyyin
				GCC_behead_the_snake
			}
		}
		"KUW" = {
			minor = yes
			history = "KUW_MODERN_DAY_DESC"
			ideology = democratic
			ideas = {
				elected_legislature
				legacy_of_the_gulf_war
				kuwait_expat
			}
			focuses = {
				GCC_end_censorship
				GCC_condemn_anti_shia_preachers
				GCC_back_the_syrian_opposition
			}
		}
		"OMA" = {
			minor = yes
			history = "OMA_MODERN_DAY_DESC"
			ideology = neutrality
			ideas = {
				idea_gcc_member_state
				oil_dependency
				omani_neutrality
			}
			focuses = {
				GCC_combat_saudi_influence
				GCC_absolute_monarchy
				GCC_strategic_hedging
			}
		}
		"QAT" = {
			minor = yes
			history = "QAT_MODERN_DAY_DESC"
			ideology = neutrality
			ideas = {
				idea_gcc_member_state
				al_jazeera
				qatar_expat
			}
			focuses = {
				GCC_the_arab_street
				GCC_a_radical_reorientation
				GCC_turkish_bases
			}
		}
		"SAU" = {
			minor = yes
			history = "SAU_MODERN_DAY_DESC"
			ideology = fascism
			ideas = {
				idea_gcc_member_state
				oil_dependency
				birthplace_of_wahhabism
			}
			focuses = {
				GCC_the_gcc
				GCC_jihad_in_arabia
				GCC_behead_the_snake
			}
		}
		"UAE" = {
			minor = yes
			history = "UAE_MODERN_DAY_DESC"
			ideology = democratic
			ideas = {
				idea_gcc_member_state
				oil_dependency
				little_sparta
			}
			focuses = {
				GCC_develop_indigenous_drone_capability
				GCC_war_in_libya
				GCC_the_dubai_model
			}
		}
		"BRM" = {
			minor = yes
			history = "BRM_MODERN_DAY_DESC"
			ideology = neutrality
			ideas = {
				ASEAN_Member
				Rohingya_Crisis
				Ethnic_Insurgencies
			}
			focuses = {
				BRM_mobilize_the_monks
				BRM_turn_on_the_united_wa_state_army
				BRM_establish_a_federated_state
			}
		}
		"AFG" = {
			minor = yes
			history = "AFG_MODERN_DAY_DESC"
			ideology = neutrality
			ideas = {
				AFG_idea_tribal_culture
				AFG_idea_factional_infighting
				AFG_idea_Afghan_defence
			}
			focuses = {
				AFG_civil_war
				AFG_going_offensive
				AFG_the_end_of_war
			}
		}
		"KOR" = {
			minor = yes
			history = "KOR_MODERN_DAY_DESC"
			ideology = democratic
			ideas = {
				KOR_wartime_control
				KOR_de_facto_two_party_system
				KOR_joint_us_exercises
			}
			focuses = {
				KOR_the_threat_from_the_north
				KOR_secure_wartime_control
				KOR_revisit_historical_grievances
			}
		}
		"NKO" = {
			minor = yes
			history = "NKO_MODERN_DAY_DESC"
			ideology = communism
			ideas = {
				NKO_idea_outsource_international_animation
				Ryugyong_Hotel
				Fallout_leadership_succession
			}
			focuses = {
				NKO_Assassinate_Kim_Jong-Nam
				NKO_Eternal_Juche_sasang
				NKO_threaten_the_south
			}
		}
		"BOT" = {
			minor = yes
			history = "BOT_MODERN_DAY_DESC"
			ideology = neutrality
			ideas = {
				BOT_model_student_of_africa
				BOT_house_of_chiefs
				BOT_BDP_stronghold
			}
			focuses = {
				BOT_topple_mugabe
				BOT_develop_anti_poaching_tactics
				BOT_the_energy_debate
			}
		}
		"LIC" = {
			minor = yes
			history = "LIC_MODERN_DAY_DESC"
			ideology = democratic
			ideas = {
				LIC_idea_abolished_military
				LIC_idea_abolished_arms_industry
			}
			focuses = {
				LIC_prince_regnant
				LIC_the_military_question
				LIC_international_investments
			}
		}
		effect = {
			randomize_weather = 22345 # <- Obligatory in every bookmark !
			#123 = { rain_light = yes }
		}
	}
}
