ideas = {
	country = {
		#European Union
		EU_member = {
			picture = european_union_member
			on_add = {
				log = "[GetDateText]: [Root.GetName]: add idea EU_member"
				add_to_array = { global.EU_member = THIS }
			}
			on_remove = {
				log = "[GetDateText]: [Root.GetName]: remove idea EU_member"
				remove_from_array = { global.EU_member = THIS }
			}

			allowed = {
				OR = {
					original_tag = POR
					original_tag = SPR
					original_tag = IRE
					original_tag = ENG
					original_tag = FRA
					original_tag = BEL
					original_tag = ICE
					original_tag = HOL
					original_tag = GER
					original_tag = SWI
					original_tag = AUS
					original_tag = DEN
					original_tag = ITA
					original_tag = NOR
					original_tag = MLT
					#original_tag = CZE
					original_tag = POL
					original_tag = SWE
					original_tag = SLV
					original_tag = SLO
					original_tag = HUN
					original_tag = CRO
					original_tag = BOS
					#original_tag = YUG
					original_tag = SER
					#original_tag = MTN
					original_tag = ALB
					#original_tag = MCD
					original_tag = GRE
					original_tag = BUL
					original_tag = TUR
					original_tag = FIN
					original_tag = EST
					original_tag = LAT
					original_tag = LIT
					original_tag = BLR
					original_tag = UKR
					#original_tag = MOL
					original_tag = ROM
					original_tag = CYP
				}
			}

			modifier = {
				political_power_factor = -0.2
				war_support_factor = -0.05
				trade_opinion_factor = 0.1
				stability_factor = 0.03
				consumer_goods_factor = -0.03
			}
		}
		un_member = {
			on_add = { log = "[GetDateText]: [Root.GetName]: add idea un_member" }

			modifier = {
				political_power_gain = 0.25
			}
		}
		the_euro = {
			on_add = { log = "[GetDateText]: [Root.GetName]: add idea the_euro" }
			picture = the_euro

			allowed = { always = no }
			allowed_civil_war = { always = yes }
			cancel = {
				#please add here exception for some countries like Andorra, San Marino, Vatican, Monaco if you need this.
				NOT = { has_idea = EU_member }
				# Disabled if not in the EU
				has_global_flag = GAME_RULE_eu_disabled
			}

			modifier = {
				economic_cycles_cost_factor = 0.5
				trade_opinion_factor = 0.2
				consumer_goods_factor = -0.01
				interest_rate_multiplier_modifier = -2
				econ_cycle_upg_cost_multiplier_modifier = 0.50
			}
		}
		#The permanent members of the United Nations Security Council
		p5_member = {
			on_add = { log = "[GetDateText]: [Root.GetName]: add idea p5_member" }

			allowed = {
				OR = {
					tag = USA
					tag = ENG
					tag = SOV
					tag = CHI
					tag = FRA
				}
			}

			modifier = {
				political_power_gain = 0.5
			}
		}
		#Group of Seven
		g7_member = {
			on_add = { log = "[GetDateText]: [Root.GetName]: add idea g7_member" }

			allowed = {
				OR = {
					original_tag = USA
					original_tag = CAN
					original_tag = ENG
					original_tag = FRA
					original_tag = ITA
					original_tag = GER
					original_tag = JAP
				}
			}

			modifier = {
				political_power_gain = 0.1
				#stability_factor = -0.05
			}
		}
		#Commonwealth
		commonwealth_of_nations_member = {
			on_add = { log = "[GetDateText]: [Root.GetName]: add idea commonwealth_of_nations_member" }
			picture = commonwealth_member
			allowed = {
				always = no
			}
			modifier = {
				political_power_gain = 0.05
				justify_war_goal_time = 0.15
			}
		}
		#GUAM Organization
		idea_GUAM_member_state = {
			on_add = { log = "[GetDateText]: [Root.GetName]: add idea idea_GUAM_member_state" }
			picture = GUAM
			allowed = { always = no }
			modifier = {
				political_power_factor = 0.15
				trade_opinion_factor = 0.10
				stability_factor = 0.05
			}
		}
		idea_GUAM_member_state_2 = {
			on_add = { log = "[GetDateText]: [Root.GetName]: add idea idea_GUAM_member_state_2" }
			picture = GUAM
			allowed = { always = no }
			modifier = {
				political_power_factor = 0.20
				trade_opinion_factor = 0.20
				war_support_factor = 0.05
				stability_factor = 0.05
			}
		}
	}
}