ideas = {

	materiel_manufacturer = {

		designer = yes

		CHL_famae_materiel_manufacturer = {
			allowed = { original_tag = CHL }
			on_add = { log = "[GetDateText]: [Root.GetName]: add idea CHL_famae_materiel_manufacturer" }

			picture = FAMAE

			cost = 150

			removal_cost = 10

			research_bonus = {
				Cat_INF_WEP = 0.124
			}

			traits = {
				Cat_INF_WEP_4

			}
			ai_will_do = {
				factor = 1
			}
		}
	}

	tank_manufacturer = {
		designer = yes
		CHL_famae_tank_manufacturer = {
			allowed = { original_tag = CHL }
			on_add = { log = "[GetDateText]: [Root.GetName]: add idea CHL_famae_tank_manufacturer" }

			picture = FAMAE

			cost = 150

			removal_cost = 10

			research_bonus = {
				Cat_AFV = 0.124
			}

			traits = {
				Cat_AFV_4

			}
			ai_will_do = {
				factor = 1
			}
		}
	}

	aircraft_manufacturer = {

		designer = yes

		CHL_enaer_aircraft_manufacturer = {
			allowed = { original_tag = CHL }
			on_add = { log = "[GetDateText]: [Root.GetName]: add idea CHL_enaer_aircraft_manufacturer" }

			picture = ENAER
			cost = 150

			removal_cost = 10

			research_bonus = {
				Cat_L_Fighter = 0.155
			}

			traits = {
				Cat_L_Fighter_5

			}
			ai_will_do = {
				factor = 1
			}

		}
	}

	naval_manufacturer = {

		designer = yes

		CHL_asmar_naval_manufacturer = {
			allowed = { original_tag = CHL }
			on_add = { log = "[GetDateText]: [Root.GetName]: add idea CHL_asmar_naval_manufacturer" }

			picture = ASMAR
			cost = 150

			removal_cost = 10

			research_bonus = {
				Cat_NAVAL_EQP = 0.124
			}

			traits = {
				Cat_NAVAL_EQP_4
			}
			ai_will_do = {
				factor = 1
			}
		}
	}
}