state = {
	id = 1167
	name = "STATE_1167"

	history = {
		owner = MAL
		victory_points = {
			14797 1
		}
		add_core_of = MAL
		add_core_of = TUA
	}

	provinces = {
	  14786 14787 14788 14797 14839
	}
	manpower = 10
	buildings_max_level_factor = 1.000
	state_category = state_01
}
