#List of Scripted Triggers

CHI_water_shortages_increase = {
	if = {
		limit = {
			NOT = {
				has_idea = water_shortages_1
				has_idea = water_shortages_2
				has_idea = water_shortages_3
				has_idea = water_shortages_4
				has_idea = water_shortages_5
			}
		}
		add_ideas = water_shortages_1
	}
	else_if = {
		limit = {
			has_idea = water_shortages_1
		}
		swap_ideas = {
			remove_idea = water_shortages_1
			add_idea = water_shortages_2
		}
	}
	else_if = {
		limit = {
			has_idea = water_shortages_2
		}
		swap_ideas = {
			remove_idea = water_shortages_2
			add_idea = water_shortages_3
		}
	}
	else_if = {
		limit = {
			has_idea = water_shortages_3
		}
		swap_ideas = {
			remove_idea = water_shortages_3
			add_idea = water_shortages_4
		}
	}
	else_if = {
		limit = {
			has_idea = water_shortages_4
		}
		swap_ideas = {
			remove_idea = water_shortages_4
			add_idea = water_shortages_5
		}
	}
}

CHI_water_shortages_decrease = {
	if = {
		limit = { has_idea = water_shortages_1 }
		remove_ideas = water_shortages_1
	}
	else_if = {
		limit = { has_idea = water_shortages_2 }
		swap_ideas = {
			remove_idea = water_shortages_2
			add_idea = water_shortages_1
		}
	}
	else_if = {
		limit = { has_idea = water_shortages_3 }
		swap_ideas = {
			remove_idea = water_shortages_3
			add_idea = water_shortages_2
		}
	}
	else_if = {
		limit = { has_idea = water_shortages_4 }
		swap_ideas = {
			remove_idea = water_shortages_4
			add_idea = water_shortages_3
		}
	}
	else_if = {
		limit = { has_idea = water_shortages_5 }
		swap_ideas = {
			remove_idea = water_shortages_5
			add_idea = water_shortages_4
		}
	}
}

CHI_open_nation_level_up = {
	if = {
		limit = { has_idea = censored_nation_01 }
		swap_ideas = {
			remove_idea = censored_nation_01
			add_idea = open_nation_01
		}
	}
	else_if = {
		limit = { has_idea = open_nation_01 }
		swap_ideas = {
			remove_idea = open_nation_01
			add_idea = open_nation_02
		}
	}
	else_if = {
		limit = { has_idea = open_nation_02 }
		swap_ideas = {
			remove_idea = open_nation_02
			add_idea = open_nation_03
		}
	}
	else_if = {
		limit = { has_idea = open_nation_03 }
		swap_ideas = {
			remove_idea = open_nation_03
			add_idea = open_nation_04
		}
	}
	else_if = {
		limit = { has_idea = open_nation_04 }
		swap_ideas = {
			remove_idea = open_nation_04
			add_idea = open_nation_05
		}
	}
	else_if = {
		limit = { has_idea = open_nation_05 }
		swap_ideas = {
			remove_idea = open_nation_05
			add_idea = open_nation_06
		}
	}
	else_if = {
		limit = { has_idea = open_nation_06 }
		swap_ideas = {
			remove_idea = open_nation_06
			add_idea = open_nation_07
		}
	}
}

CHI_censored_nation_level_up = {
	if = {
		limit = { has_idea = censored_nation_01 }
		swap_ideas = {
			remove_idea = censored_nation_01
			add_idea = censored_nation_02
		}
	}
	else_if = {
		limit = { has_idea = censored_nation_02 }
		swap_ideas = {
			remove_idea = censored_nation_02
			add_idea = censored_nation_03
		}
	}
	else_if = {
		limit = { has_idea = censored_nation_03 }
		swap_ideas = {
			remove_idea = censored_nation_03
			add_idea = censored_nation_04
		}
	}
	else_if = {
		limit = { has_idea = censored_nation_04 }
		swap_ideas = {
			remove_idea = censored_nation_04
			add_idea = censored_nation_05
		}
	}
	else_if = {
		limit = { has_idea = censored_nation_05 }
		swap_ideas = {
			remove_idea = censored_nation_05
			add_idea = censored_nation_06
		}
	}
	else_if = {
		limit = { has_idea = censored_nation_06 }
		swap_ideas = {
			remove_idea = censored_nation_06
			add_idea = censored_nation_07
		}
	}
	else_if = {
		limit = { has_idea = open_nation_04 }
		swap_ideas = {
			remove_idea = open_nation_04
			add_idea = open_nation_03
		}
	}
}

statehood_show_recognised_ROC = {

	if = {
		limit = {
			AFG = {
				has_country_flag = Recognised_TAI
			}
		}
		AFG_GetNameWithFlag = yes
	}
	if = {
		limit = {
			ALB = {
				has_country_flag = Recognised_TAI
			}
		}
		ALB_GetNameWithFlag = yes
	}
	if = {
		limit = {
			AGL = {
				has_country_flag = Recognised_TAI
			}
		}
		AGL_GetNameWithFlag = yes
	}
	if = {
		limit = {
			ARM = {
				has_country_flag = Recognised_TAI
			}
		}
		ARM_GetNameWithFlag = yes
	}
	if = {
		limit = {
			ALG = {
				has_country_flag = Recognised_TAI
			}
		}
		ALG_GetNameWithFlag = yes
	}
	if = {
		limit = {
			ARG = {
				has_country_flag = Recognised_TAI
			}
		}
		ARG_GetNameWithFlag = yes
	}
	if = {
		limit = {
			AST = {
				has_country_flag = Recognised_TAI
			}
		}
		AST_GetNameWithFlag = yes
	}
	if = {
		limit = {
			AUS = {
				has_country_flag = Recognised_TAI
			}
		}
		AUS_GetNameWithFlag = yes
	}
	if = {
		limit = {
			AZE = {
				has_country_flag = Recognised_TAI
			}
		}
		AZE_GetNameWithFlag = yes
	}
	if = {
		limit = {
			BAH = {
				has_country_flag = Recognised_TAI
			}
		}
		BAH_GetNameWithFlag = yes
	}
	if = {
		limit = {
			BHR = {
				has_country_flag = Recognised_TAI
			}
		}
		BHR_GetNameWithFlag = yes
	}
	if = {
		limit = {
			BAN = {
				has_country_flag = Recognised_TAI
			}
		}
		BAN_GetNameWithFlag = yes
	}
	if = {
		limit = {
			BAR = {
				has_country_flag = Recognised_TAI
			}
		}
		BAR_GetNameWithFlag = yes
	}
	if = {
		limit = {
			BLR = {
				has_country_flag = Recognised_TAI
			}
		}
		BLR_GetNameWithFlag = yes
	}
	if = {
		limit = {
			BEL = {
				has_country_flag = Recognised_TAI
			}
		}
		BEL_GetNameWithFlag = yes
	}
		if = {
		limit = {
			BLZ = {
				has_country_flag = Recognised_TAI
			}
		}
		BLZ_GetNameWithFlag = yes
	}
	if = {
		limit = {
			BEN = {
				has_country_flag = Recognised_TAI
			}
		}
		BEN_GetNameWithFlag = yes
	}
	if = {
		limit = {
			BHU = {
				has_country_flag = Recognised_TAI
			}
		}
		BHU_GetNameWithFlag = yes
	}
	if = {
		limit = {
			BOL = {
				has_country_flag = Recognised_TAI
			}
		}
		BOL_GetNameWithFlag = yes
	}
	if = {
		limit = {
			BOS = {
				has_country_flag = Recognised_TAI
			}
		}
		BOS_GetNameWithFlag = yes
	}
	if = {
		limit = {
			BOT = {
				has_country_flag = Recognised_TAI
			}
		}
		BOT_GetNameWithFlag = yes
	}
	if = {
		limit = {
			BRA = {
				has_country_flag = Recognised_TAI
			}
		}
		BRA_GetNameWithFlag = yes
	}
	if = {
		limit = {
			BRU = {
				has_country_flag = Recognised_TAI
			}
		}
		BRU_GetNameWithFlag = yes
	}
	if = {
		limit = {
			BUL = {
				has_country_flag = Recognised_TAI
			}
		}
		BUL_GetNameWithFlag = yes
	}
	if = {
		limit = {
			BFA = {
				has_country_flag = Recognised_TAI
			}
		}
		BFA_GetNameWithFlag = yes
	}
	if = {
		limit = {
			BUR = {
				has_country_flag = Recognised_TAI
			}
		}
		BUR_GetNameWithFlag = yes
	}
	if = {
		limit = {
			VER = {
				has_country_flag = Recognised_TAI
			}
		}
		VER_GetNameWithFlag = yes
	}
	if = {
		limit = {
			CBD = {
				has_country_flag = Recognised_TAI
			}
		}
		CBD_GetNameWithFlag = yes
	}
	if = {
		limit = {
			CAM = {
				has_country_flag = Recognised_TAI
			}
		}
		CAM_GetNameWithFlag = yes
	}
	if = {
		limit = {
			CAN = {
				has_country_flag = Recognised_TAI
			}
		}
		CAN_GetNameWithFlag = yes
	}
	if = {
		limit = {
			CAR = {
				has_country_flag = Recognised_TAI
			}
		}
		CAR_GetNameWithFlag = yes
	}
	if = {
		limit = {
			CHA = {
				has_country_flag = Recognised_TAI
			}
		}
		CHA_GetNameWithFlag = yes
	}
	if = {
		limit = {
			CHL = {
				has_country_flag = Recognised_TAI
			}
		}
		CHL_GetNameWithFlag = yes
	}
	if = {
		limit = {
			CHI = {
				has_country_flag = Recognised_TAI
			}
		}
		CHI_GetNameWithFlag = yes
	}
	if = {
		limit = {
			COL = {
				has_country_flag = Recognised_TAI
			}
		}
		COL_GetNameWithFlag = yes
	}
	if = {
		limit = {
			COM = {
				has_country_flag = Recognised_TAI
			}
		}
		COM_GetNameWithFlag = yes
	}
	if = {
		limit = {
			CNG = {
				has_country_flag = Recognised_TAI
			}
		}
		CNG_GetNameWithFlag = yes
	}
	if = {
		limit = {
			COS = {
				has_country_flag = Recognised_TAI
			}
		}
		COS_GetNameWithFlag = yes
	}
	if = {
		limit = {
			CDI = {
				has_country_flag = Recognised_TAI
			}
		}
		CDI_GetNameWithFlag = yes
	}
	if = {
		limit = {
			CRO = {
				has_country_flag = Recognised_TAI
			}
		}
		CRO_GetNameWithFlag = yes
	}
	if = {
		limit = {
			CUB = {
				has_country_flag = Recognised_TAI
			}
		}
		CUB_GetNameWithFlag = yes
	}
	if = {
		limit = {
			CYP = {
				has_country_flag = Recognised_TAI
			}
		}
		CYP_GetNameWithFlag = yes
	}
	if = {
		limit = {
			CZE = {
				has_country_flag = Recognised_TAI
			}
		}
		CZE_GetNameWithFlag = yes
	}
	if = {
		limit = {
			DRC = {
				has_country_flag = Recognised_TAI
			}
		}
		DRC_GetNameWithFlag = yes
	}
	if = {
		limit = {
			DEN = {
				has_country_flag = Recognised_TAI
			}
		}
		DEN_GetNameWithFlag = yes
	}
	if = {
		limit = {
			DJI = {
				has_country_flag = Recognised_TAI
			}
		}
		DJI_GetNameWithFlag = yes
	}
	if = {
		limit = {
			DMI = {
				has_country_flag = Recognised_TAI
			}
		}
		DMI_GetNameWithFlag = yes
	}
	if = {
		limit = {
			DOM = {
				has_country_flag = Recognised_TAI
			}
		}
		DOM_GetNameWithFlag = yes
	}
	if = {
		limit = {
			ECU = {
				has_country_flag = Recognised_TAI
			}
		}
		ECU_GetNameWithFlag = yes
	}
	if = {
		limit = {
			EGY = {
				has_country_flag = Recognised_TAI
			}
		}
		EGY_GetNameWithFlag = yes
	}
	if = {
		limit = {
			ELS = {
				has_country_flag = Recognised_TAI
			}
		}
		ELS_GetNameWithFlag = yes
	}
	if = {
		limit = {
			EGU = {
				has_country_flag = Recognised_TAI
			}
		}
		EGU_GetNameWithFlag = yes
	}
	if = {
		limit = {
			ERI = {
				has_country_flag = Recognised_TAI
			}
		}
		ERI_GetNameWithFlag = yes
	}
	if = {
		limit = {
			EST = {
				has_country_flag = Recognised_TAI
			}
		}
		EST_GetNameWithFlag = yes
	}
	if = {
		limit = {
			ETH = {
				has_country_flag = Recognised_TAI
			}
		}
		ETH_GetNameWithFlag = yes
	}
	if = {
		limit = {
			FIJ = {
				has_country_flag = Recognised_TAI
			}
		}
		FIJ_GetNameWithFlag = yes
	}
	if = {
		limit = {
			FIN = {
				has_country_flag = Recognised_TAI
			}
		}
		FIN_GetNameWithFlag = yes
	}
	if = {
		limit = {
			FRA = {
				has_country_flag = Recognised_TAI
			}
		}
		FRA_GetNameWithFlag = yes
	}
	if = {
		limit = {
			GAB = {
				has_country_flag = Recognised_TAI
			}
		}
		GAB_GetNameWithFlag = yes
	}
	if = {
		limit = {
			GAM = {
				has_country_flag = Recognised_TAI
			}
		}
		GAM_GetNameWithFlag = yes
	}
	if = {
		limit = {
			GEO = {
				has_country_flag = Recognised_TAI
			}
		}
		GEO_GetNameWithFlag = yes
	}
	if = {
		limit = {
			GER = {
				has_country_flag = Recognised_TAI
			}
		}
		GER_GetNameWithFlag = yes
	}
	if = {
		limit = {
			GAH = {
				has_country_flag = Recognised_TAI
			}
		}
		GAH_GetNameWithFlag = yes
	}
	if = {
		limit = {
			GRA = {
				has_country_flag = Recognised_TAI
			}
		}
		GRA_GetNameWithFlag = yes
	}
	if = {
		limit = {
			GRE = {
				has_country_flag = Recognised_TAI
			}
		}
		GRE_GetNameWithFlag = yes
	}
	if = {
		limit = {
			GUA = {
				has_country_flag = Recognised_TAI
			}
		}
		GUA_GetNameWithFlag = yes
	}
	if = {
		limit = {
			GUB = {
				has_country_flag = Recognised_TAI
			}
		}
		GUB_GetNameWithFlag = yes
	}
	if = {
		limit = {
			GUI = {
				has_country_flag = Recognised_TAI
			}
		}
		GUI_GetNameWithFlag = yes
	}
	if = {
		limit = {
			GUY = {
				has_country_flag = Recognised_TAI
			}
		}
		GUY_GetNameWithFlag = yes
	}
	if = {
		limit = {
			HAI = {
				has_country_flag = Recognised_TAI
			}
		}
		HAI_GetNameWithFlag = yes
	}
	if = {
		limit = {
			HON = {
				has_country_flag = Recognised_TAI
			}
		}
		HON_GetNameWithFlag = yes
	}
	if = {
		limit = {
			HUN = {
				has_country_flag = Recognised_TAI
			}
		}
		HUN_GetNameWithFlag = yes
	}
	if = {
		limit = {
			ICE = {
				has_country_flag = Recognised_TAI
			}
		}
		ICE_GetNameWithFlag = yes
	}
	if = {
		limit = {
			RAJ = {
				has_country_flag = Recognised_TAI
			}
		}
		RAJ_GetNameWithFlag = yes
	}
	if = {
		limit = {
			IND = {
				has_country_flag = Recognised_TAI
			}
		}
		IND_GetNameWithFlag = yes
	}
	if = {
		limit = {
			IRE = {
				has_country_flag = Recognised_TAI
			}
		}
		IRE_GetNameWithFlag = yes
	}
	if = {
		limit = {
			PER = {
				has_country_flag = Recognised_TAI
			}
		}
		PER_GetNameWithFlag = yes
	}
	if = {
		limit = {
			IRQ = {
				has_country_flag = Recognised_TAI
			}
		}
		IRQ_GetNameWithFlag = yes
	}
	if = {
		limit = {
			ISR = {
				has_country_flag = Recognised_TAI
			}
		}
		ISR_GetNameWithFlag = yes
	}
	if = {
		limit = {
			ITA = {
				has_country_flag = Recognised_TAI
			}
		}
		ITA_GetNameWithFlag = yes
	}
	if = {
		limit = {
			JAM = {
				has_country_flag = Recognised_TAI
			}
		}
		JAM_GetNameWithFlag = yes
	}
	if = {
		limit = {
			JAP = {
				has_country_flag = Recognised_TAI
			}
		}
		JAP_GetNameWithFlag = yes
	}
	if = {
		limit = {
			JOR = {
				has_country_flag = Recognised_TAI
			}
		}
		JOR_GetNameWithFlag = yes
	}
	if = {
		limit = {
			KAZ = {
				has_country_flag = Recognised_TAI
			}
		}
		KAZ_GetNameWithFlag = yes
	}
	if = {
		limit = {
			KEN = {
				has_country_flag = Recognised_TAI
			}
		}
		KEN_GetNameWithFlag = yes
	}
	if = {
		limit = {
			KUW = {
				has_country_flag = Recognised_TAI
			}
		}
		KUW_GetNameWithFlag = yes
	}
	if = {
		limit = {
			KYR = {
				has_country_flag = Recognised_TAI
			}
		}
		KYR_GetNameWithFlag = yes
	}
	if = {
		limit = {
			LAO = {
				has_country_flag = Recognised_TAI
			}
		}
		LAO_GetNameWithFlag = yes
	}
	if = {
		limit = {
			LAT = {
				has_country_flag = Recognised_TAI
			}
		}
		LAT_GetNameWithFlag = yes
	}
	if = {
		limit = {
			LEB = {
				has_country_flag = Recognised_TAI
			}
		}
		LEB_GetNameWithFlag = yes
	}
	if = {
		limit = {
			LES = {
				has_country_flag = Recognised_TAI
			}
		}
		LES_GetNameWithFlag = yes
	}
	if = {
		limit = {
			LIB = {
				has_country_flag = Recognised_TAI
			}
		}
		LIB_GetNameWithFlag = yes
	}
	if = {
		limit = {
			LBA = {
				has_country_flag = Recognised_TAI
			}
		}
		LBA_GetNameWithFlag = yes
	}
	if = {
		limit = {
			LIT = {
				has_country_flag = Recognised_TAI
			}
		}
		LIT_GetNameWithFlag = yes
	}
	if = {
		limit = {
			LUX = {
				has_country_flag = Recognised_TAI
			}
		}
		LUX_GetNameWithFlag = yes
	}
	if = {
		limit = {
			MAD = {
				has_country_flag = Recognised_TAI

			}
		}
		MAD_GetNameWithFlag = yes
	}
	if = {
		limit = {
			MLW = {
				has_country_flag = Recognised_TAI
			}
		}
		MLW_GetNameWithFlag = yes
	}
	if = {
		limit = {
			MAY = {
				has_country_flag = Recognised_TAI

			}
		}
		MAY_GetNameWithFlag = yes
	}
	if = {
		limit = {
			MAL = {
				has_country_flag = Recognised_TAI

			}
		}
		MAL_GetNameWithFlag = yes
	}
	if = {
		limit = {
			MAU = {
				has_country_flag = Recognised_TAI

			}
		}
		MAU_GetNameWithFlag = yes
	}
	if = {
		limit = {
			MEX = {
				has_country_flag = Recognised_TAI

			}
		}
		MEX_GetNameWithFlag = yes
	}
	if = {
		limit = {
			MIC = {
				has_country_flag = Recognised_TAI

			}
		}
		MIC_GetNameWithFlag = yes
	}
	if = {
		limit = {
			MLD = {
				has_country_flag = Recognised_TAI

			}
		}
		MLD_GetNameWithFlag = yes
	}
	if = {
		limit = {
			MLT = {
				has_country_flag = Recognised_TAI

			}
		}
		MLT_GetNameWithFlag = yes
	}
	if = {
		limit = {
			MLV = {
				has_country_flag = Recognised_TAI
			}
		}
		MLV_GetNameWithFlag = yes
	}
	if = {
		limit = {
			MRT = {
				has_country_flag = Recognised_TAI

			}
		}
		MRT_GetNameWithFlag = yes
	}
	if = {
		limit = {
			MNT = {
				has_country_flag = Recognised_TAI
			}
		}
		MNT_GetNameWithFlag = yes
	}
	if = {
		limit = {
			MON = {
				has_country_flag = Recognised_TAI

			}
		}
		MON_GetNameWithFlag = yes
	}
	if = {
		limit = {
			MOR = {
				has_country_flag = Recognised_TAI

			}
		}
		MOR_GetNameWithFlag = yes
	}
	if = {
		limit = {
			MOZ = {
				has_country_flag = Recognised_TAI

			}
		}
		MOZ_GetNameWithFlag = yes
	}
	if = {
		limit = {
			BRM = {
				has_country_flag = Recognised_TAI
			}
		}
		BRM_GetNameWithFlag = yes
	}
	if = {
		limit = {
			NAM = {
				has_country_flag = Recognised_TAI
			}
		}
		NAM_GetNameWithFlag = yes
	}
	if = {
		limit = {
			NEP = {
				has_country_flag = Recognised_TAI

			}
		}
		NEP_GetNameWithFlag = yes
	}
	if = {
		limit = {
			HOL = {
				has_country_flag = Recognised_TAI
			}
		}
		HOL_GetNameWithFlag = yes
	}
	if = {
		limit = {
			NGR = {
				has_country_flag = Recognised_TAI

			}
		}
		NGR_GetNameWithFlag = yes
	}
	if = {
		limit = {
			NIC = {
				has_country_flag = Recognised_TAI

			}
		}
		NIC_GetNameWithFlag = yes
	}
	if = {
		limit = {
			NIG = {
				has_country_flag = Recognised_TAI

			}
		}
		NIG_GetNameWithFlag = yes
	}
	if = {
		limit = {
			NOR = {
				has_country_flag = Recognised_TAI
			}
		}
		NOR_GetNameWithFlag = yes
	}
	if = {
		limit = {
			NKO = {
				has_country_flag = Recognised_TAI

			}
		}
		NKO_GetNameWithFlag = yes
	}
	if = {
		limit = {
			FYR = {
				has_country_flag = Recognised_TAI
			}
		}
		FYR_GetNameWithFlag = yes
	}
	if = {
		limit = {
			NZL = {
				has_country_flag = Recognised_TAI

			}
		}
		NZL_GetNameWithFlag = yes
	}
	if = {
		limit = {
			OMA = {
				has_country_flag = Recognised_TAI

			}
		}
		OMA_GetNameWithFlag = yes
	}
	if = {
		limit = {
			PAU = {
				has_country_flag = Recognised_TAI
			}
		}
		PAU_GetNameWithFlag = yes
	}
	if = {
		limit = {
			PAK = {
				has_country_flag = Recognised_TAI
			}
		}
		PAK_GetNameWithFlag = yes
	}
	if = {
		limit = {
			PAN = {
				has_country_flag = Recognised_TAI
			}
		}
		PAN_GetNameWithFlag = yes
	}
	if = {
		limit = {
			PAP = {
				has_country_flag = Recognised_TAI
			}
		}
		PAP_GetNameWithFlag = yes
	}
	if = {
		limit = {
			PAR = {
				has_country_flag = Recognised_TAI
			}
		}
		PAR_GetNameWithFlag = yes
	}
	if = {
		limit = {
			PHI = {
				has_country_flag = Recognised_TAI
			}
		}
		PHI_GetNameWithFlag = yes
	}
	if = {
		limit = {
			SAM = {
				has_country_flag = Recognised_TAI
			}
		}
		SAM_GetNameWithFlag = yes
	}
	if = {
		limit = {
			POL = {
				has_country_flag = Recognised_TAI
			}
		}
		POL_GetNameWithFlag = yes
	}
	if = {
		limit = {
			POR = {
				has_country_flag = Recognised_TAI
			}
		}
		POR_GetNameWithFlag = yes
	}
	if = {
		limit = {
			PRU = {
				has_country_flag = Recognised_TAI
			}
		}
		PRU_GetNameWithFlag = yes
	}
	if = {
		limit = {
			QAT = {
				has_country_flag = Recognised_TAI
			}
		}
		QAT_GetNameWithFlag = yes
	}
	if = {
		limit = {
			ROM = {
				has_country_flag = Recognised_TAI
			}
		}
		ROM_GetNameWithFlag = yes
	}
	if = {
		limit = {
			SOV = {
				has_country_flag = Recognised_TAI
			}
		}
		SOV_GetNameWithFlag = yes
	}
	if = {
		limit = {
			RWA = {
				has_country_flag = Recognised_TAI
			}
		}
		RWA_GetNameWithFlag = yes
	}
	if = {
		limit = {
			STK = {
				has_country_flag = Recognised_TAI
			}
		}
		STK_GetNameWithFlag = yes
	}
	if = {
		limit = {
			STL = {
				has_country_flag = Recognised_TAI
			}
		}
		STL_GetNameWithFlag = yes
	}
	if = {
		limit = {
			STV = {
				has_country_flag = Recognised_TAI
			}
		}
		STV_GetNameWithFlag = yes
	}
	if = {
		limit = {
			SAO = {
				has_country_flag = Recognised_TAI
			}
		}
		SAO_GetNameWithFlag = yes
	}
	if = {
		limit = {
			SAU = {
				has_country_flag = Recognised_TAI
			}
		}
		SAU_GetNameWithFlag = yes
	}
	if = {
		limit = {
			SEN = {
				has_country_flag = Recognised_TAI
			}
		}
		SEN_GetNameWithFlag = yes
	}
	if = {
		limit = {
			SER = {
				has_country_flag = Recognised_TAI
			}
		}
		SER_GetNameWithFlag = yes
	}
	if = {
		limit = {
			SIE = {
				has_country_flag = Recognised_TAI
			}
		}
		SIE_GetNameWithFlag = yes
	}
	if = {
		limit = {
			SIN = {
				has_country_flag = Recognised_TAI
			}
		}
		SIN_GetNameWithFlag = yes
	}
	if = {
		limit = {
			SLO = {
				has_country_flag = Recognised_TAI
			}
		}
		SLO_GetNameWithFlag = yes
	}
	if = {
		limit = {
			SLV = {
				has_country_flag = Recognised_TAI

			}
		}
		SLV_GetNameWithFlag = yes
	}
	if = {
		limit = {
			SOL = {
				has_country_flag = Recognised_TAI

			}
		}
		SOL_GetNameWithFlag = yes
	}
	if = {
		limit = {
			SOM = {
				has_country_flag = Recognised_TAI

			}
		}
		SOM_GetNameWithFlag = yes
	}
	if = {
		limit = {
			SAF = {
				has_country_flag = Recognised_TAI
			}
		}
		SAF_GetNameWithFlag = yes
	}
	if = {
		limit = {
			SWA = {
				has_country_flag = Recognised_TAI
			}
		}
		SWA_GetNameWithFlag = yes
	}
	if = {
		limit = {
			KOR = {
				has_country_flag = Recognised_TAI
			}
		}
		KOR_GetNameWithFlag = yes
	}
	if = {
		limit = {
			SSU = {
				has_country_flag = Recognised_TAI
				has_war = no
			}
		}
		SSU_GetNameWithFlag = yes	}
	if = {
		limit = {
			SPR = {
				has_country_flag = Recognised_TAI
			}
		}
		SPR_GetNameWithFlag = yes
	}
	if = {
		limit = {
			SRI = {
				has_country_flag = Recognised_TAI
			}
		}
		SRI_GetNameWithFlag = yes
	}
	if = {
		limit = {
			SUD = {
				has_country_flag = Recognised_TAI
			}
		}
		SUD_GetNameWithFlag = yes
	}
	if = {
		limit = {
			SUR = {
				has_country_flag = Recognised_TAI
			}
		}
		SUR_GetNameWithFlag = yes
	}
	if = {
		limit = {
			SWE = {
				has_country_flag = Recognised_TAI

			}
		}
		SWE_GetNameWithFlag = yes
	}
	if = {
		limit = {
			SWI = {
				has_country_flag = Recognised_TAI

			}
		}
		SWI_GetNameWithFlag = yes
	}
	if = {
		limit = {
			SYR = {
				has_country_flag = Recognised_TAI
			}
		}
		SYR_GetNameWithFlag = yes
	}
	if = {
		limit = {
			TAJ = {
				has_country_flag = Recognised_TAI
			}
		}
		TAJ_GetNameWithFlag = yes
	}
	if = {
		limit = {
			TNZ = {
				has_country_flag = Recognised_TAI
			}
		}
		TNZ_GetNameWithFlag = yes
	}
	if = {
		limit = {
			SIA = {
				has_country_flag = Recognised_TAI
			}
		}
		SIA_GetNameWithFlag = yes
	}
	if = {
		limit = {
			TIM = {
				has_country_flag = Recognised_TAI
			}
		}
		TIM_GetNameWithFlag = yes
	}
	if = {
		limit = {
			TOG = {
				has_country_flag = Recognised_TAI
			}
		}
		TOG_GetNameWithFlag = yes
	}
	if = {
		limit = {
			TRI = {
				has_country_flag = Recognised_TAI
			}
		}
		TRI_GetNameWithFlag = yes
	}
	if = {
		limit = {
			TUN = {
				has_country_flag = Recognised_TAI
			}
		}
		TUN_GetNameWithFlag = yes
	}
	if = {
		limit = {
			TUR = {
				has_country_flag = Recognised_TAI
			}
		}
		TUR_GetNameWithFlag = yes
	}
	if = {
		limit = {
			TRK = {
				has_country_flag = Recognised_TAI
			}
		}
		TRK_GetNameWithFlag = yes
	}
	if = {
		limit = {
			UGA = {
				has_country_flag = Recognised_TAI
			}
		}
		UGA_GetNameWithFlag = yes
	}
	if = {
		limit = {
			UAE = {
				has_country_flag = Recognised_TAI
			}
		}
		UAE_GetNameWithFlag = yes
	}
	if = {
		limit = {
			UKR = {
				has_country_flag = Recognised_TAI
			}
		}
		UKR_GetNameWithFlag = yes
	}
	if = {
		limit = {
			ENG = {
				has_country_flag = Recognised_TAI
			}
		}
		ENG_GetNameWithFlag = yes
	}
	if = {
		limit = {
			USA = {
				has_country_flag = Recognised_TAI
			}
		}
		USA_GetNameWithFlag = yes
	}
	if = {
		limit = {
			URG = {
				has_country_flag = Recognised_TAI
			}
		}
		URG_GetNameWithFlag = yes
	}
	if = {
		limit = {
			UZB = {
				has_country_flag = Recognised_TAI
			}
		}
		UZB_GetNameWithFlag = yes
	}
	if = {
		limit = {
			VEN = {
				has_country_flag = Recognised_TAI
			}
		}
		VEN_GetNameWithFlag = yes
	}
	if = {
		limit = {
			VIE = {
				has_country_flag = Recognised_TAI
			}
		}
		VIE_GetNameWithFlag = yes
	}
	if = {
		limit = {
			YEM = {
				has_country_flag = Recognised_TAI
			}
		}
		YEM_GetNameWithFlag = yes
	}
	if = {
		limit = {
			ZAM = {
				has_country_flag = Recognised_TAI
			}
		}
		ZAM_GetNameWithFlag = yes
	}
	if = {
		limit = {
			ZIM = {
				has_country_flag = Recognised_TAI
			}
		}
		ZIM_GetNameWithFlag = yes
	}
	
	if = {
		limit = {
			MAR = {
				has_country_flag = Recognised_TAI
			}
		}
		MAR_GetNameWithFlag = yes
	}
	if = {
		limit = {
			KIR = {
				has_country_flag = Recognised_TAI
			}
		}
		KIR_GetNameWithFlag = yes
	} if = {
		limit = {
			TUL = {
				has_country_flag = Recognised_TAI
			}
		}
		TUL_GetNameWithFlag = yes
	}
	if = {
		limit = {
			VAN = {
				has_country_flag = Recognised_TAI
			}
		}
		VAN_GetNameWithFlag = yes
	}
	if = {
		limit = {
			TON = {
				has_country_flag = Recognised_TAI
			}
		}
		TON_GetNameWithFlag = yes
	}
	if = {
		limit = {
			NAU = {
				has_country_flag = Recognised_TAI
			}
		}
		NAU_GetNameWithFlag = yes
	}
}

CHI_five_state_infrastructure_via_focus = {
	random_owned_controlled_state = {
		limit = {
			free_building_slots = {
				building = infrastructure
				size > 0
				include_locked = yes
			}
			OR = {
				is_in_home_area = yes
				NOT = {
					owner = {
						any_owned_state = {
							free_building_slots = {
								building = infrastructure
								size > 0
								include_locked = yes
							}
							is_in_home_area = yes
						}
					}
				}
			}
		}
		add_building_construction = {
			type = infrastructure
			level = 2
			instant_build = yes
		}
	}
	random_owned_controlled_state = {
		limit = {
			free_building_slots = {
				building = infrastructure
				size > 0
				include_locked = yes
			}
			OR = {
				is_in_home_area = yes
				NOT = {
					owner = {
						any_owned_state = {
							free_building_slots = {
								building = infrastructure
								size > 0
								include_locked = yes
							}
							is_in_home_area = yes
						}
					}
				}
			}
		}
		add_building_construction = {
			type = infrastructure
			level = 2
			instant_build = yes
		}
	}
	random_owned_controlled_state = {
		limit = {
			free_building_slots = {
				building = infrastructure
				size > 0
				include_locked = yes
			}
			OR = {
				is_in_home_area = yes
				NOT = {
					owner = {
						any_owned_state = {
							free_building_slots = {
								building = infrastructure
								size > 0
								include_locked = yes
							}
							is_in_home_area = yes
						}
					}
				}
			}
		}
		add_building_construction = {
			type = infrastructure
			level = 2
			instant_build = yes
		}
	}
	random_owned_controlled_state = {
		limit = {
			free_building_slots = {
				building = infrastructure
				size > 0
				include_locked = yes
			}
			OR = {
				is_in_home_area = yes
				NOT = {
					owner = {
						any_owned_state = {
							free_building_slots = {
								building = infrastructure
								size > 0
								include_locked = yes
							}
							is_in_home_area = yes
						}
					}
				}
			}
		}
		add_building_construction = {
			type = infrastructure
			level = 2
			instant_build = yes
		}
	}
	random_owned_controlled_state = {
		limit = {
			free_building_slots = {
				building = infrastructure
				size > 0
				include_locked = yes
			}
			OR = {
				is_in_home_area = yes
				NOT = {
					owner = {
						any_owned_state = {
							free_building_slots = {
								building = infrastructure
								size > 0
								include_locked = yes
							}
							is_in_home_area = yes
						}
					}
				}
			}
		}
		add_building_construction = {
			type = infrastructure
			level = 2
			instant_build = yes
		}
	}
}

CHI_advance_moon_base = {
	hidden_effect = {
		random_list = {
			40 = {
				modifier = {
					factor = 0
					has_country_flag = chi_moon_base_first_progression
				}
				set_country_flag = chi_moon_base_first_progression
				country_event = { id = chi_moon.3 days = 30 random_hours = 480 } #First progression
			}
			40 = {
				modifier = {
					factor = 0
					OR = {
						has_country_flag = chi_moon_base_second_progression
						NOT = {
							has_country_flag = chi_moon_base_first_progression
						}
					}
				}
				set_country_flag = chi_moon_base_second_progression
				country_event = { id = chi_moon.5 days = 30 random_hours = 480 } #Second progression
			}
			40 = {
				modifier = {
					factor = 0
					has_country_flag = chi_moon_base_first_crisis
				}
				set_country_flag = chi_moon_base_first_crisis
				country_event = { id = chi_moon.4 days = 30 random_hours = 480 } #First crisis
			}
			40 = {
				modifier = {
					factor = 0
					OR = {
						has_country_flag = chi_moon_base_second_crisis
						NOT = {
							has_country_flag = chi_moon_base_first_crisis
						}
					}
				}
				set_country_flag = chi_moon_base_second_crisis
				country_event = { id = chi_moon.6 days = 30 random_hours = 480 } #Second crisis
			}
			20 = {
				modifier = {
					factor = 0
					NOT = {
						has_country_flag = chi_moon_base_second_progression
					}
				}
				set_country_flag = chi_moonbase_beta_completed
				country_event = { id = chi_moon.7 days = 15 random_hours = 240 } #Moonbase Beta
			}
		}
	}
}

# Chinese Cosmetic Tags
CHI_government_change = {
	if = {
		limit = { original_tag = CHI }
		if = {
			limit = {
				emerging_communist_state_are_in_power = yes
			}
			set_country_flag = is_CHINA
			set_cosmetic_tag = CHI_AUTH_S
		}
	}
	# If CCP is not in Power
	if = {
		limit = { original_tag = CHI }
		if = {
			limit = {
				emerging_communist_state_are_in_power = no
			}
			clr_country_flag = is_CHINA
			drop_cosmetic_tag = yes
		}
	}
}