set_leader_KOS = {

	if = { limit = { has_country_flag = set_liberalism }

		if = { limit = { check_variable = { liberalism_leader = 0 } }
			add_to_variable = { liberalism_leader = 1 }
			hidden_effect = { kill_country_leader = yes }

			create_country_leader = {
				name = "Ramush Haradinaj"
				picture = "ramush_haradinaj.dds"
				ideology = liberalism
				traits = {
					western_liberalism
					military_career
				}
			}

			if = { limit = { has_country_flag = do_not_retire } subtract_from_variable = { liberalism_leader = 1 } }
			if = { limit = { date < 2016.1.2 } set_temp_variable = { b = 1 } } #skip if 2017
		}
	}
	else_if = { limit = { has_country_flag = set_Communist-State }
		if = { limit = { check_variable = { Communist-State_leader = 0 } }
			add_to_variable = { Communist-State_leader = 1 }
			hidden_effect = { kill_country_leader = yes }

			create_country_leader = {
				name = "Avni Klinaku"
				picture = "generic.dds"
				ideology = Communist-State
				traits = {
					emerging_Communist-State
					career_politician
				}
			}

			if = { limit = { has_country_flag = do_not_retire } subtract_from_variable = { Communist-State_leader = 1 } }
			if = { limit = { date < 2016.1.2 } set_temp_variable = { b = 1 } } #skip if 2017
		}
	}
	else_if = { limit = { has_country_flag = set_Neutral_conservatism }
		if = { limit = { check_variable = { Neutral_conservatism_leader = 0 } }
			add_to_variable = { Neutral_conservatism_leader = 1 }
			hidden_effect = { kill_country_leader = yes }

			create_country_leader = {
				name = "Hashim Thaçi"
				picture = "hashim_tahci.dds"
				ideology = Neutral_conservatism
				traits = {
					neutrality_Neutral_conservatism
					career_politician
				}
			}

			if = { limit = { has_country_flag = do_not_retire } subtract_from_variable = { Neutral_conservatism_leader = 1 } }
			if = { limit = { date < 2016.1.2 } set_temp_variable = { b = 1 } } #skip if 2017
		}
	}
	else_if = { limit = { has_country_flag = set_Neutral_Communism }
		if = { limit = { check_variable = { Neutral_Communism_leader = 0 } }
			add_to_variable = { Neutral_Communism_leader = 1 }
			hidden_effect = { kill_country_leader = yes }

			create_country_leader = {
				name = "Abdullah Prapashtica"
				picture = "generic.dds"
				ideology = Neutral_Communism
				traits = {
					neutrality_Neutral_Communism
				}
			}

			if = { limit = { has_country_flag = do_not_retire } subtract_from_variable = { Neutral_Communism_leader = 1 } }
			if = { limit = { date < 2016.1.2 } set_temp_variable = { b = 1 } } #skip if 2017
		}
	}
	else_if = { limit = { has_country_flag = set_Neutral_green }
		if = { limit = { check_variable = { Neutral_green_leader = 0 } }
			add_to_variable = { Neutral_green_leader = 1 }
			hidden_effect = { kill_country_leader = yes }

			create_country_leader = {
				name = "Daut Maloku"
				picture = "generic.dds"
				ideology = Neutral_green
				traits = {
					neutrality_Neutral_green
					ecological_economist
				}
			}

			if = { limit = { has_country_flag = do_not_retire } subtract_from_variable = { Neutral_green_leader = 1 } }
			if = { limit = { date < 2016.1.2 } set_temp_variable = { b = 1 } } #skip if 2017
		}
	}
	else_if = { limit = { has_country_flag = set_Nat_Autocracy }
		if = { limit = { check_variable = { Nat_Autocracy_leader = 0 } }
			add_to_variable = { Nat_Autocracy_leader = 1 }
			hidden_effect = { kill_country_leader = yes }

			create_country_leader = {
				name = "Agim Çeku"
				picture = "generic.dds"
				ideology = Nat_Autocracy
				traits = {
					nationalist_Nat_Autocracy
					military_career
				}
			}

			if = { limit = { has_country_flag = do_not_retire } subtract_from_variable = { Nat_Autocracy_leader = 1 } }
			if = { limit = { date < 2016.1.2 } set_temp_variable = { b = 1 } } #skip if 2017
		}
		if = { limit = { check_variable = { Nat_Autocracy_leader = 1 } NOT = { check_variable = { b = 1 } } }
			add_to_variable = { Nat_Autocracy_leader = 1 }
			hidden_effect = { kill_country_leader = yes }

			create_country_leader = {
				name = "Rrahman Rama"
				picture = "rrahman_rama.dds"
				ideology = Nat_Autocracy
				traits = {
					nationalist_Nat_Autocracy
					military_career
				}
			}

			if = { limit = { has_country_flag = do_not_retire } subtract_from_variable = { Nat_Autocracy_leader = 1 } }
			set_temp_variable = { b = 1 }
		}
	}
	else_if = { limit = { has_country_flag = set_conservatism }
		if = { limit = { check_variable = { conservatism_leader = 0 } }
			add_to_variable = { conservatism_leader = 1 }
			hidden_effect = { kill_country_leader = yes }

			create_country_leader = {
				name = "Isa Mustafa"
				picture = "isa_mustafa.dds"
				ideology = conservatism
				traits = {
					western_conservatism
					economist
					career_politician
				}
			}

			if = { limit = { has_country_flag = do_not_retire } subtract_from_variable = { conservatism_leader = 1 } }
			set_temp_variable = { b = 1 }
		}
	}
	else_if = { limit = { has_country_flag = set_neutral_Social }
		if = { limit = { check_variable = { neutral_Social_leader = 0 } }
			add_to_variable = { neutral_Social_leader = 1 }
			hidden_effect = { kill_country_leader = yes }

			create_country_leader = {
				name = "Albin Kurti"
				picture = "albin_kurti.dds"
				ideology = neutral_Social
				traits = {
					neutrality_neutral_Social
					career_politician
					ex_engineer
				}
			}

			if = { limit = { has_country_flag = do_not_retire } subtract_from_variable = { neutral_Social_leader = 1 } }
			set_temp_variable = { b = 1 }
		}
	}
	else_if = { limit = { has_country_flag = set_Nat_Populism }
		if = { limit = { check_variable = { Nat_Populism_leader = 0 } }
			add_to_variable = { Nat_Populism_leader = 1 }
			hidden_effect = { kill_country_leader = yes }

			create_country_leader = {
				name = "Aleksandar Jablanović"
				picture = "aleksandar_jablanovic.dds"
				ideology = Nat_Populism
				traits = {
					nationalist_Nat_Populism
					career_politician
				}
			}

			if = { limit = { has_country_flag = do_not_retire } subtract_from_variable = { Nat_Populism_leader = 1 } }
			set_temp_variable = { b = 1 }
		}
	}
}