﻿division_template = {
	name = "Elite Militia Battalion"

	is_locked = yes

	division_names_group = SYR_NUS_MILITIAS

	regiments = {
		Mot_Militia_Bat = { x = 0 y = 0 }
	}
	support = {
		armor_Comp = { x = 0 y = 0 }
	}
}

division_template = {
	name = "Militia Battalion"

	is_locked = yes

	division_names_group = SYR_NUS_MILITIAS

	regiments = {
		Mot_Militia_Bat = { x = 0 y = 0 }
	}
}

division_template = {
	name = "Jabhat al-Nusra Brigade"

	division_names_group = SYR_NUS_MAIN_BRIGADES

	regiments = {
		Mot_Militia_Bat = { x = 0 y = 0 }
		Mot_Militia_Bat = { x = 0 y = 1 }
		Mot_Militia_Bat = { x = 0 y = 2 }
	}
	support = {
		armor_Comp = { x = 0 y = 0 }
		Arty_Battery = { x = 0 y = 1 }
	}
}

division_template = {
	name = "Militia Brigade"

	is_locked = yes

	division_names_group = SYR_NUS_MILITIAS

	regiments = {
		Mot_Militia_Bat = { x = 0 y = 0 }
		Mot_Militia_Bat = { x = 0 y = 1 }
		Mot_Militia_Bat = { x = 0 y = 2 }
	}
	support = {
		L_Engi_Comp = { x = 0 y = 0 }
		Arty_Battery = { x = 0 y = 1 }
	}
}

division_template = {
	name = "Self-Defence Brigade"

	is_locked = yes

	division_names_group = SYR_NUS_SELF_DEFENCE

	regiments = {
		Militia_Bat = { x = 0 y = 0 }
		Militia_Bat = { x = 0 y = 1 }
	}
	support = {
		L_Engi_Comp = { x = 0 y = 0 }
	}
}

division_template = {
	name = "Militia Division"

	is_locked = yes

	division_names_group = SYR_NUS_MILITIAS

	regiments = {
		Militia_Bat = { x = 0 y = 0 }
		Militia_Bat = { x = 0 y = 1 }
		Militia_Bat = { x = 0 y = 2 }
		Militia_Bat = { x = 1 y = 0 }
		Militia_Bat = { x = 1 y = 1 }
		Militia_Bat = { x = 1 y = 2 }
		Militia_Bat = { x = 2 y = 0 }
		Militia_Bat = { x = 2 y = 1 }
		Militia_Bat = { x = 2 y = 2 }
		Arty_Bat = { x = 3 y = 0 }
		Arty_Bat = { x = 3 y = 1 }
		Arty_Bat = { x = 3 y = 2 }
	}
}

division_template = {
	name = "Special Unit"

	division_names_group = SYR_NUS_SPECIAL_FORCES

	regiments = {
		Special_Forces = { x = 0 y = 0 }
		Special_Forces = { x = 0 y = 1 }
	}
	support = {
		L_Recce_Comp = { x = 0 y = 0 }
		L_Engi_Comp = { x = 0 y = 1 }
	}
	priority = 2
}

units = {
	###Tahrir al-Sham###
	division = {
			#name = "Wolf Unit" #Nusrah
		division_name = {
			is_name_ordered = yes
			name_order = 1
		}
		location = 7140
		division_template = "Special Unit"
		start_experience_factor = 0.5
		start_equipment_factor = 0.01
	}
	division = {
		#name = "1st Jabhat al-Nusra Brigade" #Nusrah
		division_name = {
			is_name_ordered = yes
			name_order = 1
		}
		location = 7140
		division_template = "Jabhat al-Nusra Brigade"
		start_experience_factor = 0.3
		start_equipment_factor = 0.01
	}
	division = {
		#name = "2nd Jabhat al-Nusra Brigade" #Nusrah
		division_name = {
			is_name_ordered = yes
			name_order = 2
		}
		location = 7140
		division_template = "Jabhat al-Nusra Brigade"
		start_experience_factor = 0.3
		start_equipment_factor = 0.01
	}
	division = {
		#name = "3rd Jabhat al-Nusra Brigade" #Nusrah
		division_name = {
			is_name_ordered = yes
			name_order = 3
		}
		location = 7140
		division_template = "Jabhat al-Nusra Brigade"
		start_experience_factor = 0.3
		start_equipment_factor = 0.01
	}
	division = {
		#name = "4th Jabhat al-Nusra Brigade" #Nusrah
		division_name = {
			is_name_ordered = yes
			name_order = 4
		}
		location = 7140
		division_template = "Jabhat al-Nusra Brigade"
		start_experience_factor = 0.3
		start_equipment_factor = 0.01
	}
	division = {
		#name = "5th Jabhat al-Nusra Brigade" #Nusrah
		division_name = {
			is_name_ordered = yes
			name_order = 5
		}
		location = 7140
		division_template = "Jabhat al-Nusra Brigade"
		start_experience_factor = 0.3
		start_equipment_factor = 0.01
	}
	division = {
		#name = "6th Jabhat al-Nusra Brigade" #Nusrah
		division_name = {
			is_name_ordered = yes
			name_order = 6
		}
		location = 7140
		division_template = "Jabhat al-Nusra Brigade"
		start_experience_factor = 0.3
		start_equipment_factor = 0.01
	}

	#Ahrar al-Sham
	division = {
		#name = "Ahrar al-Sham Army"
		division_name = {
			is_name_ordered = yes
			name_order = 2
		}
		location = 7140
		division_template = "Militia Division"
		start_experience_factor = 0.2
		start_equipment_factor = 0.01
	}
	division = {
		#name = "Suqour al-Sham Army"
		division_name = {
			is_name_ordered = yes
			name_order = 1
		}
		location = 7140
		division_template = "Militia Division"
		start_experience_factor = 0.2
		start_equipment_factor = 0.01
	}

	division = {
		#name = "Al-Anasar Regiment"
		division_name = {
			is_name_ordered = yes
			name_order = 6
		}
		location = 7140
		division_template = "Militia Brigade" #division
		start_experience_factor = 0.2
		start_equipment_factor = 0.01
	}

	#Sham Legion
	division = {
		#name = "Fatiheen Brigade"
		division_name = {
			is_name_ordered = yes
			name_order = 3
		}
		location = 7140
		division_template = "Self-Defence Brigade"
		start_experience_factor = 0.2
		start_equipment_factor = 0.01
	}
	division = {
		#name = "Eman Brigade"
		division_name = {
			is_name_ordered = yes
			name_order = 2
		}
		location = 7140
		division_template = "Self-Defence Brigade"
		start_experience_factor = 0.1
		start_equipment_factor = 0.01
	}
	division = {
		#name = "Sihem al-Haq Brigade"
		division_name = {
			is_name_ordered = yes
			name_order = 4
		}
		location = 7140
		division_template = "Self-Defence Brigade"
		start_experience_factor = 0.2
		start_equipment_factor = 0.01
	}
	division = {
		#name = "Liwa al-Sadiq"
		division_name = {
			is_name_ordered = yes
			name_order = 1
		}
		location = 7140
		division_template = "Self-Defence Brigade"
		start_experience_factor = 0.2
		start_equipment_factor = 0.01
	}
	#Missing: Jabhat Ahl al-Sham (3.000)

	#Nour al-Din al-Zenki Movement
	division = {
		#name = "Swords of Shahba Brigade"
		division_name = {
			is_name_ordered = yes
			name_order = 4
		}
		location = 6362
		division_template = "Militia Brigade"
		start_experience_factor = 0.2
		start_equipment_factor = 0.01
	}
	division = {
		#name = "Liwa Suyuf al-Sham"
		division_name = {
			is_name_ordered = yes
			name_order = 3
		}
		location = 6362
		division_template = "Militia Brigade"
		start_experience_factor = 0.2
		start_equipment_factor = 0.01
	}
	division = {
		#name = "Northern Army"
		division_name = {
			is_name_ordered = yes
			name_order = 7
		}
		location = 6362
		division_template = "Militia Brigade"
		start_experience_factor = 0.2
		start_equipment_factor = 0.01
	}

	#Smaller Groups
	division = {
		#name = "Jaysh al-Sunna"
		division_name = {
			is_name_ordered = yes
			name_order = 10
		}
		location = 11127
		division_template = "Militia Battalion"
		start_experience_factor = 0.15
		start_equipment_factor = 0.01
	}
	division = {
		#name = "Liwa al-Haqq"
		division_name = {
			is_name_ordered = yes
			name_order = 9
		}
		location = 11127
		division_template = "Militia Battalion"
		start_experience_factor = 0.15
		start_equipment_factor = 0.01
	}
	division = {
		#name = "Kataib al-Rashid"
		division_name = {
			is_name_ordered = yes
			name_order = 8
		}
		location = 11127
		division_template = "Militia Battalion"
		start_experience_factor = 0.15
		start_equipment_factor = 0.01
	}
	division = {
		#name = "Jaysh al-Farouq"
		division_name = {
			is_name_ordered = yes
			name_order = 5
		}
		location = 11127
		division_template = "Militia Brigade"
		start_experience_factor = 0.15
		start_equipment_factor = 0.01
	}
}

instant_effect = {
	add_equipment_to_stockpile = {
		type = mbt_hull_2
		variant_name = "T-90"
		amount = 1
		producer = SOV
	}

	add_equipment_to_stockpile = {
		type = mbt_hull_1
		variant_name = "T-72"
		amount = 12
		producer = SOV
	}

	add_equipment_to_stockpile = {
		type = mbt_hull_0
		variant_name = "T-55"
		amount = 40
		producer = SOV
	}

	add_equipment_to_stockpile = {
		type = ifv_hull_0
		variant_name = "BMP-2"
		amount = 10
		producer = SOV
	}

	add_equipment_to_stockpile = {
		type = ifv_hull_0
		variant_name = "BMP-1"
		amount = 30
		producer = SOV
	}

	add_equipment_to_stockpile = {
		type = util_vehicle_1	#Safir-jeeps
		amount = 40
		producer = PER
	}

	add_equipment_to_stockpile = {
		type = util_vehicle_3	#Humwee
		amount = 40
		producer = USA
	}

	add_equipment_to_stockpile = {
		type = util_vehicle_0	#Technicals
		amount = 1900
	}

	add_equipment_to_stockpile = {
		type = util_vehicle_1	#Technicals
		amount = 850
	}

	add_equipment_to_stockpile = {
		type = SP_R_arty_0	#BM-21
		amount = 36
		producer = SOV
	}

	add_equipment_to_stockpile = {
		type = SP_arty_0		#2S1 Gvozdika
		#version_name = "2S1 Gvozdika"
		amount = 16
		producer = SOV
	}

	add_equipment_to_stockpile = {
		type = command_control_equipment2
		amount = 180
		producer = USA
	}

	add_equipment_to_stockpile = {
		type = infantry_weapons			#AKs
		amount = 12000
		producer = SOV
	}

	add_equipment_to_stockpile = {
		type = infantry_weapons			#AKs
		amount = 3000
		producer = CHI
	}

	add_equipment_to_stockpile = {
		type = infantry_weapons1			#AKs
		amount = 6000
		producer = SOV
	}

	add_equipment_to_stockpile = {
		type = infantry_weapons3			#AKs
		amount = 1800
		producer = SOV
	}

	add_equipment_to_stockpile = {
		type = infantry_weapons1			#Norinco CQ
		amount = 1800
		producer = CHI
	}

	add_equipment_to_stockpile = {
		type = infantry_weapons3			#
		amount = 1500
		producer = GER
	}

	add_equipment_to_stockpile = {
		type = infantry_weapons4 #M4
		amount = 600
		producer = USA
	}

	add_equipment_to_stockpile = {
		type = infantry_weapons1 #M16
		amount = 2000
		producer = USA
	}

	#ATGM

	add_equipment_to_stockpile = {
		type = Anti_tank_1 #HJ-8
		amount = 300
		producer = CHI
	}
	add_equipment_to_stockpile = {
		type = Anti_tank_1 #MILAN
		amount = 120
		producer = FRA
	}
	add_equipment_to_stockpile = {
		type = Anti_tank_0 #
		amount = 80
		producer = SOV
	}
	add_equipment_to_stockpile = {
		type = Anti_tank_1 #
		amount = 120
		producer = SOV
	}
	add_equipment_to_stockpile = {
		type = Anti_tank_2 #9K115-2 Metis-M
		amount = 40
		producer = SOV
	}
	add_equipment_to_stockpile = {
		type = Heavy_Anti_tank_2 #BGM-71 TOW
		amount = 100
		producer = USA
	}
	add_equipment_to_stockpile = {
		type = Heavy_Anti_tank_2 #Kornet
		amount = 40
		producer = SOV
	}

	#MANPADS

	add_equipment_to_stockpile = {
		type = Anti_Air_0 #SA7
		amount = 150
		producer = SOV
	}

	add_equipment_to_stockpile = {
		type = Anti_Air_1 #SA16
		amount = 100
		producer = SOV
	}

	add_equipment_to_stockpile = {
		type = Anti_Air_2 #SA24
		amount = 25 #50
		producer = SOV
	}

	add_equipment_to_stockpile = {
		type = Anti_Air_2 #fn-6
		amount = 50 #150
		producer = CHI
	}
}