﻿division_template = {
	name = "Infantry Brigade"

	regiments = {
		Mech_Inf_Bat = { x = 0 y = 0 }
		Mech_Inf_Bat = { x = 0 y = 1 }
		Mech_Inf_Bat = { x = 0 y = 2 }
		Arty_Bat = { x = 0 y = 3 }
	}

	support = {
		L_Engi_Comp = { x = 0 y = 0 }
		SP_Arty_Battery = { x = 0 y = 1 }
		Mech_Recce_Comp = { x = 0 y = 2 }
	}
}
division_template = {
	name = "Mountain Brigade"

	regiments = {
		L_Inf_Bat = { x = 0 y = 0 }
		L_Inf_Bat = { x = 0 y = 1 }
		L_Inf_Bat = { x = 0 y = 2 }
		Arty_Bat = { x = 0 y = 3 }
	}

	support = {
		L_Engi_Comp = { x = 0 y = 0 }
		SP_Arty_Battery = { x = 0 y = 1 }
	}
}
division_template = {
	name = "Mechanized Brigade"

	regiments = {
		armor_Bat = { x = 0 y = 0 }
		SP_AA_Bat = { x = 0 y = 1 }
		Arm_Inf_Bat = { x = 1 y = 0 }
		Arm_Inf_Bat = { x = 1 y = 1 }
		Arty_Bat = { x = 1 y = 2 }
	}

	support = {
		L_Engi_Comp = { x = 0 y = 0 }
		SP_Arty_Battery = { x = 0 y = 1 }
		Mech_Recce_Comp = { x = 0 y = 2 }
	}
}
division_template = {
	name = "Brigada Operații Speciale"
	regiments = {
		Special_Forces = { x = 0 y = 0 }
		Special_Forces = { x = 0 y = 1 }
		L_Air_Inf_Bat = { x = 0 y = 2 }
	}

	priority = 2
}

units = {
	division = {
		name = "1st Mechanized Brigade 'Argedava'"
		location = 9617	#Bucharest
		division_template = "Mechanized Brigade"
		start_experience_factor = 0.5
		start_equipment_factor = 0.01
	}

	division = {
		name = "2nd Infantry Brigade"
		location = 9617	#Craiova
		division_template = "Infantry Brigade"
		start_experience_factor = 0.5
		start_equipment_factor = 0.01
	}

	division = {
		name = "2nd Vanatori de Munte Brigade"
		location = 11652 #Brasov
		division_template = "Mountain Brigade"
		start_experience_factor = 0.5
		start_equipment_factor = 0.01
	}

	division = {
		name = "9th Mechanized Brigade 'Marasesti'"
		location = 657	#Constanta
		division_template = "Mechanized Brigade"
		start_experience_factor = 0.5
		start_equipment_factor = 0.01
	}

	division = {
		name = "15th Mechanized Brigade 'Podu Inalt'"
		location = 9716	#Iasi
		division_template = "Mechanized Brigade"
		start_experience_factor = 0.5
		start_equipment_factor = 0.01
	}

	division = {
		name = "282nd Mechanized Brigade 'Unirea Principatelor'"
		location = 9701	#Focșani
		division_template = "Infantry Brigade"
		start_experience_factor = 0.5
		start_equipment_factor = 0.01
	}

	division = {
		name = "18th Mechanized Brigade 'Banat'"
		location = 9606	#Timișoara
		division_template = "Infantry Brigade"
		start_experience_factor = 0.5
		start_equipment_factor = 0.01
	}

	division = {
		name = "61st Vanatori de Munte Brigade"
		location = 9668 #Miercurea Ciuc
		division_template = "Mountain Brigade"
		start_experience_factor = 0.5
		start_equipment_factor = 0.01
	}

	division = {
		name = "81st Mechanized Brigade"
		location = 11676
		division_template = "Infantry Brigade"
		start_experience_factor = 0.5
		start_equipment_factor = 0.01
	}
}

instant_effect = {
	add_equipment_to_stockpile = {
		type = infantry_weapons2			 #Pusca Automata Model 1986
		amount = 7000
		producer = ROM
	}
	add_equipment_to_stockpile = {
		type = command_control_equipment2
		amount = 900
		producer = SOV
	}
	add_equipment_to_stockpile = {
		type = Anti_Air_0			 #CA-94
		amount = 230
		producer = ROM
	}
	add_equipment_to_stockpile = {
		type = Heavy_Anti_tank_0			 #Malyutka
		amount = 100
		producer = SOV
	}
	add_equipment_to_stockpile = {
		type = Heavy_Anti_tank_1			 #Konkurs
		amount = 45
		producer = SOV
	}
	add_equipment_to_stockpile = {
		type = Anti_tank_1			 #Fagot
		amount = 320
		producer = SOV
	}

	add_equipment_to_stockpile = {
		type = util_vehicle_0
		amount = 500
	}

	add_equipment_to_stockpile = {
		type = mbt_hull_1
		variant_name = "T-55"
		amount = 717
		producer = SOV
	}
	add_equipment_to_stockpile = {
		type = apc_hull_1
		variant_name = "BRDM-2"
		amount = 4
		producer = SOV
	}
	add_equipment_to_stockpile = {
		type = artillery_0		 #M81
		amount = 493
		producer = ROM
	}
	add_equipment_to_stockpile = {
		type = artillery_1		 #M85
		amount = 114
		producer = ROM
	}
	add_equipment_to_stockpile = {
		type = spart_hull_0
		variant_name = "2S1 Gvozdika"
		amount = 42
		producer = SOV
	}
	add_equipment_to_stockpile = {
		type = spart_hull_0
		variant_name = "2S1 Gvozdika"
		amount = 6
		producer = SOV
	}
	add_equipment_to_stockpile = {
		type = spaa_hull_0
		amount = 64
		producer = SOV
		variant_name = "SA-6 Gainful"
	}
}