﻿division_template = {
	name = "Infantry Brigade"

	regiments = {
		L_Inf_Bat = { x = 0 y = 0 }
		L_Inf_Bat = { x = 0 y = 1 }
		L_Inf_Bat = { x = 0 y = 2 }
	}
}

units = {
	division = {
		name = "Infantry Brigade"
		location = 7900
		division_template = "Infantry Brigade"
		start_experience_factor = 0.1
		start_equipment_factor = 0.01
	}
}

instant_effect = {
	add_equipment_to_stockpile = {
		type = infantry_weapons
		amount = 600
		producer = ISR
	}
		add_equipment_to_stockpile = {
		type = command_control_equipment
		amount = 60
		producer = USA
	}
		add_equipment_to_stockpile = {
		type = Anti_tank_1
		amount = 40
		producer = USA
	}
	add_equipment_to_stockpile = {
		type = Heavy_Anti_tank_1
		amount = 0
		producer = USA
	}
	add_equipment_to_stockpile = {
		type = Anti_Air_1
		amount = 30
		producer = USA
	}
}