﻿units = {

	### Naval OOB ###
	fleet = {
		name = "Destroyer Squadron 7" #San Diego, CA
		naval_base = 1562
		task_force = {
			name = "Destroyer Squadron 7" #San Diego, CA
			location = 1562
			ship = { name = "USS Valley Forge (CG-50)" definition = cruiser start_experience_factor = 0.75 equipment = { missile_cruiser_1 = { amount = 1 owner = USA } } }
			ship = { name = "USS McClusky (FFG-7)" definition = cruiser start_experience_factor = 0.75 equipment = { missile_cruiser_1 = { amount = 1 owner = USA } } }
			ship = { name = "USS John Paul Jones (DDG-53)" definition = destroyer start_experience_factor = 0.75 equipment = { missile_destroyer_1 = { amount = 1 owner = USA } } }
			ship = { name = "USS Benfold (DDG-65)" definition = destroyer start_experience_factor = 0.75 equipment = { missile_destroyer_1 = { amount = 1 owner = USA } } }
			ship = { name = "USS Milius (DDG-69)" definition = destroyer start_experience_factor = 0.75 equipment = { missile_destroyer_1 = { amount = 1 owner = USA } } }
			ship = { name = "USS Kinkaid (DD-965)" definition = destroyer start_experience_factor = 0.75 equipment = { missile_destroyer_1 = { amount = 1 owner = USA } } }
		}
	}
	fleet = {
		name = "Destroyer Squadron 15" #Yokosuka, Japan - Moved to Guam
		naval_base = 12140
		task_force = {
			name = "Destroyer Squadron 15" #Yokosuka, Japan - Moved to Guam
			location = 12140
			ship = { name = "USS Vincennes (CG-49)" definition = cruiser start_experience_factor = 0.75 equipment = { missile_cruiser_1 = { amount = 1 owner = USA } } }
			ship = { name = "USS Vandegrift (FFG-48)" definition = frigate start_experience_factor = 0.75 equipment = { frigate_2 = { amount = 1 owner = USA } } }
			ship = { name = "USS Gary (FFG-51)" definition = frigate start_experience_factor = 0.75 equipment = { frigate_2 = { amount = 1 owner = USA } } }
			ship = { name = "USS Curtis Wilbur (DDG-54)" definition = destroyer start_experience_factor = 0.75 equipment = { missile_destroyer_1 = { amount = 1 owner = USA } } }
			ship = { name = "USS John S. McCain (DDG-56)" definition = destroyer start_experience_factor = 0.75 equipment = { missile_destroyer_1 = { amount = 1 owner = USA } } }
			ship = { name = "USS O'Brien (DD-975)" definition = destroyer start_experience_factor = 0.75 equipment = { missile_destroyer_1 = { amount = 1 owner = USA } } }
			ship = { name = "USS Cushing (DD-985)" definition = destroyer start_experience_factor = 0.75 equipment = { missile_destroyer_1 = { amount = 1 owner = USA } } }
		}
	}
	fleet = {
		name = "Destroyer Squadron 21" #San Diego, CA
		naval_base = 1562
		task_force = {
			name = "Destroyer Squadron 21" #San Diego, CA
			location = 1562
			ship = { name = "USS Yorktown (CG-48)" definition = cruiser start_experience_factor = 0.75 equipment = { missile_cruiser_1 = { amount = 1 owner = USA } } }
			ship = { name = "USS Jarret (FFG-33)" definition = frigate start_experience_factor = 0.75 equipment = { frigate_2 = { amount = 1 owner = USA } } }
			ship = { name = "USS Rentz (FFG-46)" definition = frigate start_experience_factor = 0.75 equipment = { frigate_2 = { amount = 1 owner = USA } } }
			ship = { name = "USS Decatur (DDG-73)" definition = destroyer start_experience_factor = 0.75 equipment = { missile_destroyer_2 = { amount = 1 owner = USA } } }
			ship = { name = "USS John Hancock DD-981" definition = destroyer start_experience_factor = 0.75 equipment = { destroyer_2 = { amount = 1 owner = USA } } }
			ship = { name = "USS Fletcher (DD-992)" definition = destroyer start_experience_factor = 0.75 equipment = { missile_destroyer_1 = { amount = 1 owner = USA } } }
		}
	}
	fleet = {
		name = "Destroyer Squadron 23" #San Diego, CA
		naval_base = 1562
		task_force = {
			name = "Destroyer Squadron 23" #San Diego, CA
			location = 1562
			ship = { name = "USS Ticonderoga (CG-47)" definition = cruiser start_experience_factor = 0.75 equipment = { missile_cruiser_1 = { amount = 1 owner = USA } } }
			ship = { name = "USS Thach (FFG-43)" definition = frigate start_experience_factor = 0.75 equipment = { frigate_2 = { amount = 1 owner = USA } } }
			ship = { name = "USS Fitzgerald (DDG-62)" definition = destroyer start_experience_factor = 0.75 equipment = { missile_destroyer_1 = { amount = 1 owner = USA } } }
			ship = { name = "USS Moosbrugger DD-980" definition = destroyer start_experience_factor = 0.75 equipment = { destroyer_2 = { amount = 1 owner = USA } } }
			ship = { name = "USS Oldendorf (DD-972)" definition = destroyer start_experience_factor = 0.75 equipment = { missile_destroyer_1 = { amount = 1 owner = USA } } }
			ship = { name = "USS John Young (DD-973)" definition = destroyer start_experience_factor = 0.75 equipment = { missile_destroyer_1 = { amount = 1 owner = USA } } }
		}
	}
	fleet = {
		name = "USS Enterprise"
		naval_base = 865
		task_force = {
			name = "USS Enterprise"
			location = 865

			ship = { name = "USS Enterprise" definition = carrier start_experience_factor = 0.75 equipment = { Nuclear_carrier_1 = { amount = 1 owner = USA version_name = "Enterprise Class" } }

			}
		}
	}
	fleet = {
		name = "Carrier Group 3" #San Diego, CA
		naval_base = 1562
		task_force = {
			name = "Carrier Group 3" #San Diego, CA
			location = 1562
			ship = { name = "USS Carl Vinson" definition = carrier start_experience_factor = 0.75 equipment = { Nuclear_carrier_1 = { amount = 1 owner = USA } }

			}
			ship = { name = "USS Dwight D. Eisenhower" definition = carrier start_experience_factor = 0.75 equipment = { Nuclear_carrier_1 = { amount = 1 owner = USA } }

			}
			ship = { name = "USS Antietam (CG-54)" definition = cruiser start_experience_factor = 0.75 equipment = { missile_cruiser_1 = { amount = 1 owner = USA } } }
			ship = { name = "USS Princeton (CG-59)" definition = cruiser start_experience_factor = 0.75 equipment = { missile_cruiser_1 = { amount = 1 owner = USA } } }
		}
	}
	fleet = {
		name = "Carrier Group 5" #Yokosuka, Japan - Moved to Guam
		naval_base = 12140
		task_force = {
			name = "Carrier Group 5" #Yokosuka, Japan - Moved to Guam
			location = 12140
			ship = { name = "USS Kitty Hawk (CV-63)" definition = carrier start_experience_factor = 0.75 equipment = { carrier_0 = { amount = 1 owner = USA } } }
			ship = { name = "USS Constellation (CV-64)" definition = carrier start_experience_factor = 0.75 equipment = { carrier_0 = { amount = 1 owner = USA } } }
			ship = { name = "USS Chancellorsville (CG-62)" definition = cruiser start_experience_factor = 0.75 equipment = { missile_cruiser_1 = { amount = 1 owner = USA } } }
			ship = { name = "USS Shiloh (CG-67)" definition = cruiser start_experience_factor = 0.75 equipment = { missile_cruiser_1 = { amount = 1 owner = USA } } }
			ship = { name = "USS Barry (DDG-52)" definition = destroyer start_experience_factor = 0.75 equipment = { missile_destroyer_1 = { amount = 1 owner = USA } } }
			ship = { name = "USS Hewitt	DD-966" definition = destroyer start_experience_factor = 0.75 equipment = { destroyer_2 = { amount = 1 owner = USA } } }
			ship = { name = "USS Caron DD-970" definition = destroyer start_experience_factor = 0.75 equipment = { destroyer_2 = { amount = 1 owner = USA } } }
		}
	}
	fleet = {
		name = "Carrier Group 7" #San Diego, CA
		naval_base = 1562
		task_force = {
			name = "Carrier Group 7" #San Diego, CA
			location = 1562
			ship = { name = "USS John C. Stennis" definition = carrier start_experience_factor = 0.75 equipment = { Nuclear_carrier_1 = { amount = 1 owner = USA } }

			}
			ship = { name = "USS George Washington" definition = carrier start_experience_factor = 0.75 equipment = { Nuclear_carrier_1 = { amount = 1 owner = USA } }

			}
			ship = { name = "USS Lake Champlain (CG-57)" definition = cruiser start_experience_factor = 0.75 equipment = { missile_cruiser_1 = { amount = 1 owner = USA } } }
			ship = { name = "USS Port Royal (CG-73)" definition = cruiser start_experience_factor = 0.75 equipment = { missile_cruiser_1 = { amount = 1 owner = USA } } }
		}
	}
	fleet = {
		name = "Cruiser Destroyer Group 1" #San Diego, CA
		naval_base = 1562
		task_force = {
			name = "Cruiser Destroyer Group 1" #San Diego, CA
			location = 1562
			ship = { name = "USS Bunker Hill (CG-52)" definition = cruiser start_experience_factor = 0.75 equipment = { missile_cruiser_1 = { amount = 1 owner = USA } } }
			ship = { name = "USS Lake Erie (CG-70)" definition = cruiser start_experience_factor = 0.75 equipment = { missile_cruiser_1 = { amount = 1 owner = USA } } }
			ship = { name = "USS Chosin (CG-65)" definition = cruiser start_experience_factor = 0.75 equipment = { missile_cruiser_1 = { amount = 1 owner = USA } } }
		}
	}
	fleet = {
		name = "Destroyer Squadron 9" #Everett, WA
		naval_base = 7315
		task_force = {
			name = "Destroyer Squadron 9" #Everett, WA
			location = 7315
			ship = { name = "USS Ford (FFG-54)" definition = frigate start_experience_factor = 0.75 equipment = { frigate_2 = { amount = 1 owner = USA } } }
			ship = { name = "USS Rodney M. Davis (FFG-60)" definition = frigate start_experience_factor = 0.75 equipment = { frigate_2 = { amount = 1 owner = USA } } }
			ship = { name = "USS Ingraham (FFG-61)" definition = frigate start_experience_factor = 0.75 equipment = { frigate_2 = { amount = 1 owner = USA } } }
			ship = { name = "USS Paul F. Foster (DD-964)" definition = destroyer start_experience_factor = 0.75 equipment = { missile_destroyer_1 = { amount = 1 owner = USA } } }
			ship = { name = "USS Fife (DD-991)" definition = destroyer start_experience_factor = 0.75 equipment = { missile_destroyer_1 = { amount = 1 owner = USA } } }
		}
	}
	fleet = {
		name = "Destroyer Squadron 31" #Pearl Harbor, Hawaii
		naval_base = 4180
		task_force = {
			name = "Destroyer Squadron 31" #Pearl Harbor, Hawaii
			location = 4180
			ship = { name = "USS Thomas S. Gates (CG-51)" definition = cruiser start_experience_factor = 0.75 equipment = { missile_cruiser_1 = { amount = 1 owner = USA } } }
			ship = { name = "USS Russell (DDG-59)" definition = destroyer start_experience_factor = 0.75 equipment = { missile_destroyer_1 = { amount = 1 owner = USA } } }
			ship = { name = "USS Paul Hamilton (DDG-60)" definition = destroyer start_experience_factor = 0.75 equipment = { missile_destroyer_1 = { amount = 1 owner = USA } } }
			ship = { name = "USS Hopper (DDG-70)" definition = destroyer start_experience_factor = 0.75 equipment = { missile_destroyer_1 = { amount = 1 owner = USA } } }
			ship = { name = "USS O Kane (DDG-77)" definition = destroyer start_experience_factor = 0.75 equipment = { missile_destroyer_2 = { amount = 1 owner = USA } } }
			ship = { name = "USS Crommelin (FFG-37)" definition = frigate start_experience_factor = 0.75 equipment = { frigate_2 = { amount = 1 owner = USA } } }
			ship = { name = "USS Reuben James (FFG-57)" definition = frigate start_experience_factor = 0.75 equipment = { frigate_2 = { amount = 1 owner = USA } } }
		}
	}
	fleet = {
		name = "Submarine Squadron 1" #Pearl Harbor, Hawaii
		naval_base = 4180
		task_force = {
			name = "Submarine Squadron 1" #Pearl Harbor, Hawaii
			location = 4180
			ship = { name = "USS Los Angeles" definition = attack_submarine start_experience_factor = 0.75 equipment = { attack_submarine_3 = { amount = 1 owner = USA } } }
			ship = { name = "USS La Jolla" definition = attack_submarine start_experience_factor = 0.75 equipment = { attack_submarine_3 = { amount = 1 owner = USA } } }
			ship = { name = "USS Buffalo" definition = attack_submarine start_experience_factor = 0.75 equipment = { attack_submarine_3 = { amount = 1 owner = USA } } }
			ship = { name = "USS Charlotte" definition = attack_submarine start_experience_factor = 0.75 equipment = { attack_submarine_3 = { amount = 1 owner = USA version_name = "Los Angeles i-Class" } } }
			ship = { name = "USS Greeneville" definition = attack_submarine start_experience_factor = 0.75 equipment = { attack_submarine_3 = { amount = 1 owner = USA version_name = "Los Angeles i-Class" } } }
			ship = { name = "USS Kamehameha (SSN-642)" definition = missile_submarine start_experience_factor = 0.75 equipment = { missile_submarine_2 = { amount = 1 owner = USA } } }
			ship = { name = "USS Bremerton" definition = attack_submarine start_experience_factor = 0.75 equipment = { attack_submarine_3 = { amount = 1 owner = USA } } }
		}
	}
	fleet = {
		name = "Submarine Squadron 3" #Pearl Harbor, Hawaii
		naval_base = 4180
		task_force = {
			name = "Submarine Squadron 3" #Pearl Harbor, Hawaii
			location = 4180
			ship = { name = "USS Olympia" definition = attack_submarine start_experience_factor = 0.75 equipment = { attack_submarine_3 = { amount = 1 owner = USA } } }
			ship = { name = "USS Honolulu" definition = attack_submarine start_experience_factor = 0.75 equipment = { attack_submarine_3 = { amount = 1 owner = USA } } }
			ship = { name = "USS Chicago" definition = attack_submarine start_experience_factor = 0.75 equipment = { attack_submarine_3 = { amount = 1 owner = USA } } }
			ship = { name = "USS Key West" definition = attack_submarine start_experience_factor = 0.75 equipment = { attack_submarine_3 = { amount = 1 owner = USA } } }
			ship = { name = "USS Louisville" definition = attack_submarine start_experience_factor = 0.75 equipment = { attack_submarine_3 = { amount = 1 owner = USA } } }
			ship = { name = "USS Columbia" definition = attack_submarine start_experience_factor = 0.75 equipment = { attack_submarine_3 = { amount = 1 owner = USA version_name = "Los Angeles i-Class" } } }
			ship = { name = "USS Asheville" definition = attack_submarine start_experience_factor = 0.75 equipment = { attack_submarine_3 = { amount = 1 owner = USA version_name = "Los Angeles i-Class" } } }
		}
	}
	fleet = {
		name = "Submarine Squadron 7" #Pearl Harbor, Hawaii
		naval_base = 4180
		task_force = {
			name = "Submarine Squadron 7" #Pearl Harbor, Hawaii
			location = 4180
			ship = { name = "USS Pasadena" definition = attack_submarine start_experience_factor = 0.75 equipment = { attack_submarine_3 = { amount = 1 owner = USA version_name = "Los Angeles i-Class" } } }
			ship = { name = "USS Columbus" definition = attack_submarine start_experience_factor = 0.75 equipment = { attack_submarine_3 = { amount = 1 owner = USA version_name = "Los Angeles i-Class" } } }
			ship = { name = "USS Santa Fe" definition = attack_submarine start_experience_factor = 0.75 equipment = { attack_submarine_3 = { amount = 1 owner = USA version_name = "Los Angeles i-Class" } } }
			ship = { name = "USS Tucson" definition = attack_submarine start_experience_factor = 0.75 equipment = { attack_submarine_3 = { amount = 1 owner = USA version_name = "Los Angeles i-Class" } } }
			ship = { name = "USS Cheyenne" definition = attack_submarine start_experience_factor = 0.75 equipment = { attack_submarine_3 = { amount = 1 owner = USA version_name = "Los Angeles i-Class" } } }
			ship = { name = "USS Topeka" definition = attack_submarine start_experience_factor = 0.75 equipment = { attack_submarine_3 = { amount = 1 owner = USA version_name = "Los Angeles i-Class" } } }
		}
	}
	fleet = {
		name = "Submarine Squadron 13" #Pearl Harbor, Hawaii
		naval_base = 4180
		task_force = {
			name = "Submarine Squadron 13" #Pearl Harbor, Hawaii
			location = 4180
			ship = { name = "USS Portsmouth" definition = attack_submarine start_experience_factor = 0.75 equipment = { attack_submarine_3 = { amount = 1 owner = USA } } }
			ship = { name = "USS Houston" definition = attack_submarine start_experience_factor = 0.75 equipment = { attack_submarine_3 = { amount = 1 owner = USA } } }
			ship = { name = "USS Salt Lake City" definition = attack_submarine start_experience_factor = 0.75 equipment = { attack_submarine_3 = { amount = 1 owner = USA } } }
			ship = { name = "USS Helena" definition = attack_submarine start_experience_factor = 0.75 equipment = { attack_submarine_3 = { amount = 1 owner = USA } } }
			ship = { name = "USS Jefferson City" definition = attack_submarine start_experience_factor = 0.75 equipment = { attack_submarine_3 = { amount = 1 owner = USA } } }
		}
	}
	fleet = {
		name = "Submarine Squadron 17" #Bangor
		naval_base = 7315
		task_force = {
			name = "Submarine Squadron 17" #Bangor
			location = 7315
			ship = { name = "USS Ohio" definition = missile_submarine start_experience_factor = 0.75 equipment = { missile_submarine_3 = { amount = 1 owner = USA } } }
			ship = { name = "USS Michigan" definition = missile_submarine start_experience_factor = 0.75 equipment = { missile_submarine_3 = { amount = 1 owner = USA } } }
			ship = { name = "USS Florida" definition = missile_submarine start_experience_factor = 0.75 equipment = { missile_submarine_3 = { amount = 1 owner = USA } } }
			ship = { name = "USS Georgia" definition = missile_submarine start_experience_factor = 0.75 equipment = { missile_submarine_3 = { amount = 1 owner = USA } } }
		}
	}

	#Atlantic Fleet
	fleet = {
		name = "Destroyer Squadron 2" #Norfolk, VA
		naval_base = 788
		task_force = {
			name = "Destroyer Squadron 2" #Norfolk, VA
			location = 788
			ship = { name = "USS CARR (FFG-52)" definition = frigate start_experience_factor = 0.75 equipment = { frigate_2 = { amount = 1 owner = USA } } }
			ship = { name = "USS Arleigh Burke (DDG-51)" definition = destroyer start_experience_factor = 0.75 equipment = { missile_destroyer_1 = { amount = 1 owner = USA } } }
			ship = { name = "USS Porter (DDG-78)" definition = destroyer start_experience_factor = 0.75 equipment = { missile_destroyer_2 = { amount = 1 owner = USA } } }
			ship = { name = "USS Arthur W. Radford DD-968" definition = destroyer start_experience_factor = 0.75 equipment = { destroyer_2 = { amount = 1 owner = USA } } }
			ship = { name = "USS Mitscher (DD-980)" definition = destroyer start_experience_factor = 0.75 equipment = { missile_destroyer_1 = { amount = 1 owner = USA } } }
			ship = { name = "USS Stump (DD-978)" definition = destroyer start_experience_factor = 0.75 equipment = { missile_destroyer_1 = { amount = 1 owner = USA } } }
		}
	}
	fleet = {
		name = "Destroyer Squadron 18" #Norfolk, VA
		naval_base = 788
		task_force = {
			name = "Destroyer Squadron 18" #Norfolk, VA
			location = 788
			ship = { name = "USS Nihcolas (FFG-47)" definition = frigate start_experience_factor = 0.75 equipment = { frigate_2 = { amount = 1 owner = USA } } }
			ship = { name = "USS Stout (DDG-55)" definition = destroyer start_experience_factor = 0.75 equipment = { missile_destroyer_1 = { amount = 1 owner = USA } } }
			ship = { name = "USS Gonzales (DDG-66)" definition = destroyer start_experience_factor = 0.75 equipment = { missile_destroyer_1 = { amount = 1 owner = USA } } }
			ship = { name = "USS McFaul (DDG-74)" definition = destroyer start_experience_factor = 0.75 equipment = { missile_destroyer_2 = { amount = 1 owner = USA } } }
			ship = { name = "USS Nicholsen (DD-982)" definition = destroyer start_experience_factor = 0.75 equipment = { missile_destroyer_1 = { amount = 1 owner = USA } } }
			ship = { name = "USS Thorn (DD-988)" definition = destroyer start_experience_factor = 0.75 equipment = { missile_destroyer_1 = { amount = 1 owner = USA } } }
		}
	}
	fleet = {
		name = "Destroyer Squadron 22" #Norfolk, VA
		naval_base = 788
		task_force = {
			name = "Destroyer Squadron 22" #Norfolk, VA
			location = 788
			ship = { name = "USS Hawes (FFG-53)" definition = frigate start_experience_factor = 0.75 equipment = { frigate_2 = { amount = 1 owner = USA } } }
			ship = { name = "USS Cole (DDG-67)" definition = destroyer start_experience_factor = 0.75 equipment = { missile_destroyer_1 = { amount = 1 owner = USA } } }
			ship = { name = "USS Donald Cook (DDG-75)" definition = destroyer start_experience_factor = 0.75 equipment = { missile_destroyer_2 = { amount = 1 owner = USA } } }
			ship = { name = "USS Paul F. Foster	DD-964" definition = destroyer start_experience_factor = 0.75 equipment = { destroyer_2 = { amount = 1 owner = USA } } }
			ship = { name = "USS John Young	DD-973" definition = destroyer start_experience_factor = 0.75 equipment = { destroyer_2 = { amount = 1 owner = USA } } }
			ship = { name = "USS Caron (DD-970)" definition = destroyer start_experience_factor = 0.75 equipment = { missile_destroyer_1 = { amount = 1 owner = USA } } }
			ship = { name = "USS Briscoe (DD-977)" definition = destroyer start_experience_factor = 0.75 equipment = { missile_destroyer_1 = { amount = 1 owner = USA } } }
		}
	}
	fleet = {
		name = "Destroyer Squadron 24" #Mayport, FL
		naval_base = 7388
		task_force = {
			name = "Destroyer Squadron 24" #Mayport, FL
			location = 7388
			ship = { name = "USS Underwood (FFG-36)" definition = frigate start_experience_factor = 0.75 equipment = { frigate_2 = { amount = 1 owner = USA } } }
			ship = { name = "USS Taylor (FFG-50)" definition = frigate start_experience_factor = 0.75 equipment = { frigate_2 = { amount = 1 owner = USA } } }
			ship = { name = "USS The Sullivans (DDG-68)" definition = destroyer start_experience_factor = 0.75 equipment = { missile_destroyer_1 = { amount = 1 owner = USA } } }
			ship = { name = "USS Carney (DDG-64)" definition = destroyer start_experience_factor = 0.75 equipment = { missile_destroyer_1 = { amount = 1 owner = USA } } }
			ship = { name = "USS Nicholson DD-982" definition = destroyer start_experience_factor = 0.75 equipment = { destroyer_2 = { amount = 1 owner = USA } } }
			ship = { name = "USS Spruance (DD-963)" definition = destroyer start_experience_factor = 0.75 equipment = { missile_destroyer_1 = { amount = 1 owner = USA } } }
		}
	}
	fleet = {
		name = "Destroyer Squadron 26" #Norfolk, VA
		naval_base = 788
		task_force = {
			name = "Destroyer Squadron 26" #Norfolk, VA
			location = 788
			ship = { name = "USS Kauffman (FFG-59)" definition = frigate start_experience_factor = 0.75 equipment = { frigate_2 = { amount = 1 owner = USA } } }
			ship = { name = "USS Laboon (DDG-58)" definition = destroyer start_experience_factor = 0.75 equipment = { missile_destroyer_1 = { amount = 1 owner = USA } } }
			ship = { name = "USS Mahan (DDG-72)" definition = destroyer start_experience_factor = 0.75 equipment = { missile_destroyer_2 = { amount = 1 owner = USA } } }
			ship = { name = "USS Spruance (DD-111)" definition = destroyer start_experience_factor = 0.75 equipment = { missile_destroyer_2 = { amount = 1 owner = USA } } } ship = { name = "USS " definition = destroyer start_experience_factor = 0.75 equipment = { destroyer_2 = { amount = 1 owner = USA } } }
		}
	}
	fleet = {
		name = "Destroyer Squadron 28" #Norfolk, VA
		naval_base = 788
		task_force = {
			name = "Destroyer Squadron 28" #Norfolk, VA
			location = 788
			ship = { name = "USS Elrod (FFG-55)" definition = frigate start_experience_factor = 0.75 equipment = { frigate_2 = { amount = 1 owner = USA } } }
			ship = { name = "USS Ramage (DDG-61)" definition = destroyer start_experience_factor = 0.75 equipment = { missile_destroyer_1 = { amount = 1 owner = USA } } }
			ship = { name = "USS Ross (DDG-71)" definition = destroyer start_experience_factor = 0.75 equipment = { missile_destroyer_1 = { amount = 1 owner = USA } } }
			ship = { name = "USS Fife DD-991" definition = destroyer start_experience_factor = 0.75 equipment = { destroyer_2 = { amount = 1 owner = USA } } }
			ship = { name = "USS Peterson (DD-969)" definition = destroyer start_experience_factor = 0.75 equipment = { missile_destroyer_1 = { amount = 1 owner = USA } } }
			ship = { name = "USS Hayler (DD-997)" definition = destroyer start_experience_factor = 0.75 equipment = { missile_destroyer_1 = { amount = 1 owner = USA } } }
		}
	}
	fleet = {
		name = "Carrier Group 2" #Norfolk, VA
		naval_base = 788
		task_force = {
			name = "Carrier Group 2" #Norfolk, VA
			location = 788
			ship = { name = "USS Harry S. Truman" definition = carrier start_experience_factor = 0.75 equipment = { Nuclear_carrier_1 = { amount = 1 owner = USA } }

			}
			ship = { name = "USS San Jacinto (CG-56)" definition = cruiser start_experience_factor = 0.75 equipment = { missile_cruiser_1 = { amount = 1 owner = USA } } }
		}
	}
	fleet = {
		name = "Carrier Group 8" #Norfolk, VA
		naval_base = 788
		task_force = {
			name = "Carrier Group 8" #Norfolk, VA
			location = 788
			ship = { name = "USS Theodore Roosevelt" definition = carrier start_experience_factor = 0.75 equipment = { Nuclear_carrier_1 = { amount = 1 owner = USA } }

			}
			ship = { name = "USS Abraham Lincoln" definition = carrier start_experience_factor = 0.75 equipment = { Nuclear_carrier_1 = { amount = 1 owner = USA } }

			}
			ship = { name = "USS Leyte Gulf (CG-55)" definition = cruiser start_experience_factor = 0.75 equipment = { missile_cruiser_1 = { amount = 1 owner = USA } } }
			ship = { name = "USS Halyburton (FFG-40)" definition = frigate start_experience_factor = 0.75 equipment = { frigate_2 = { amount = 1 owner = USA } } }
		}
	}
	fleet = {
		name = "Cruiser Destroyer Group 2" #Norfolk, VA
		naval_base = 788
		task_force = {
			name = "Cruiser Destroyer Group 2" #Norfolk, VA
			location = 788
			ship = { name = "USS Normandy (CG-60)" definition = cruiser start_experience_factor = 0.75 equipment = { missile_cruiser_1 = { amount = 1 owner = USA } } }
			ship = { name = "USS Monterey (CG-61)" definition = cruiser start_experience_factor = 0.75 equipment = { missile_cruiser_1 = { amount = 1 owner = USA } } }
		}
	}
	fleet = {
		name = "Cruiser Destroyer Group 3" #Norfolk, VA
		naval_base = 788
		task_force = {
			name = "Cruiser Destroyer Group 3" #Norfolk, VA
			location = 788
			ship = { name = "USS Anzio (CG-68)" definition = cruiser start_experience_factor = 0.75 equipment = { missile_cruiser_1 = { amount = 1 owner = USA } } }
			ship = { name = "USS Cape St. George (CG-71)" definition = cruiser start_experience_factor = 0.75 equipment = { missile_cruiser_1 = { amount = 1 owner = USA } } }
		}
	}
	fleet = {
		name = "Cruiser Destroyer Group 12" #Mayport, FL.
		naval_base = 7388
		task_force = {
			name = "Cruiser Destroyer Group 12" #Mayport, FL.
			location = 7388
			ship = { name = "USS Philippine Sea (CG-58)" definition = cruiser start_experience_factor = 0.75 equipment = { missile_cruiser_1 = { amount = 1 owner = USA } } }
			ship = { name = "USS Gettysburg (CG-64)" definition = cruiser start_experience_factor = 0.75 equipment = { missile_cruiser_1 = { amount = 1 owner = USA } } }
		}
	}
	fleet = {
		name = "Destroyer Squadron 14" #Norfolk, VA
		naval_base = 788
		task_force = {
			name = "Destroyer Squadron 14" #Norfolk, VA
			location = 788
			ship = { name = "USS McInerny (FFG-8)" definition = frigate start_experience_factor = 0.75 equipment = { frigate_2 = { amount = 1 owner = USA } } }
			ship = { name = "USS Boone (FFG-28)" definition = frigate start_experience_factor = 0.75 equipment = { frigate_2 = { amount = 1 owner = USA } } }
			ship = { name = "USS Stephen W. Groves (FFG-29)" definition = frigate start_experience_factor = 0.75 equipment = { frigate_2 = { amount = 1 owner = USA } } }
			ship = { name = "USS John L. Hall (FFG-32)" definition = frigate start_experience_factor = 0.75 equipment = { frigate_2 = { amount = 1 owner = USA } } }
			ship = { name = "USS Doyle (FFG-39)" definition = frigate start_experience_factor = 0.75 equipment = { frigate_2 = { amount = 1 owner = USA } } }
			ship = { name = "USS Klakring (FFG-42)" definition = frigate start_experience_factor = 0.75 equipment = { frigate_2 = { amount = 1 owner = USA } } }
			ship = { name = "USS De Wert (FFG-45)" definition = frigate start_experience_factor = 0.75 equipment = { frigate_2 = { amount = 1 owner = USA } } }
			ship = { name = "USS Robert G. Bradley (FFG-49)" definition = frigate start_experience_factor = 0.75 equipment = { frigate_2 = { amount = 1 owner = USA } } }
			ship = { name = "USS Simpson (FFG-56)" definition = frigate start_experience_factor = 0.75 equipment = { frigate_2 = { amount = 1 owner = USA } } }
			ship = { name = "USS Samuel B. Roberts (FFG-58)" definition = frigate start_experience_factor = 0.75 equipment = { frigate_2 = { amount = 1 owner = USA } } }
		}
	}
	fleet = {
		name = "Submarine Squadron 2" #New London
		naval_base = 9832
		task_force = {
			name = "Submarine Squadron 2" #New London
			location = 9832
			ship = { name = "USS Philadelphia" definition = attack_submarine start_experience_factor = 0.75 equipment = { attack_submarine_3 = { amount = 1 owner = USA } } }
			ship = { name = "USS Dallas" definition = attack_submarine start_experience_factor = 0.75 equipment = { attack_submarine_3 = { amount = 1 owner = USA } } }
			ship = { name = "USS Pittsburgh" definition = attack_submarine start_experience_factor = 0.75 equipment = { attack_submarine_3 = { amount = 1 owner = USA } } }
			ship = { name = "USS Springfield" definition = attack_submarine start_experience_factor = 0.75 equipment = { attack_submarine_3 = { amount = 1 owner = USA version_name = "Los Angeles i-Class" } } }
		}
	}
	fleet = {
		name = "Submarine Squadron 4" #New London
		naval_base = 9832
		task_force = {
			name = "Submarine Squadron 4" #New London
			location = 9832
			ship = { name = "USS Seawolf" definition = attack_submarine start_experience_factor = 0.75 equipment = { attack_submarine_3 = { amount = 1 owner = USA version_name = "Seawolf-Class" } } }
			ship = { name = "USS Connecticut" definition = attack_submarine start_experience_factor = 0.75 equipment = { attack_submarine_3 = { amount = 1 owner = USA version_name = "Seawolf-Class" } } }
			ship = { name = "USS Providence" definition = attack_submarine start_experience_factor = 0.75 equipment = { attack_submarine_3 = { amount = 1 owner = USA } } }
			ship = { name = "USS Miami" definition = attack_submarine start_experience_factor = 0.75 equipment = { attack_submarine_3 = { amount = 1 owner = USA version_name = "Los Angeles i-Class" } } }
			ship = { name = "USS Hartford" definition = attack_submarine start_experience_factor = 0.75 equipment = { attack_submarine_3 = { amount = 1 owner = USA } } }
		}
	}
	fleet = {
		name = "Submarine Squadron 6" #Norfolk
		naval_base = 788
		task_force = {
			name = "Submarine Squadron 6" #Norfolk
			location = 788
			ship = { name = "USS Minneapolis-Saint Paul" definition = attack_submarine start_experience_factor = 0.75 equipment = { attack_submarine_3 = { amount = 1 owner = USA } } }
			ship = { name = "USS Albany" definition = attack_submarine start_experience_factor = 0.75 equipment = { attack_submarine_3 = { amount = 1 owner = USA version_name = "Los Angeles i-Class" } } }
			ship = { name = "USS Montpelier" definition = attack_submarine start_experience_factor = 0.75 equipment = { attack_submarine_3 = { amount = 1 owner = USA version_name = "Los Angeles i-Class" } } }
			ship = { name = "USS L. Mendel Rivers" definition = attack_submarine start_experience_factor = 0.75 equipment = { attack_submarine_2 = { amount = 1 owner = USA } } }
		}
	}
	fleet = {
		name = "Submarine Squadron 8" #Norfolk
		naval_base = 788
		task_force = {
			name = "Submarine Squadron 8" #Norfolk
			location = 788
			ship = { name = "USS Oklahoma City" definition = attack_submarine start_experience_factor = 0.75 equipment = { attack_submarine_3 = { amount = 1 owner = USA } } }
			ship = { name = "USS Newport News" definition = attack_submarine start_experience_factor = 0.75 equipment = { attack_submarine_3 = { amount = 1 owner = USA } } }
			ship = { name = "USS Boise" definition = attack_submarine start_experience_factor = 0.75 equipment = { attack_submarine_3 = { amount = 1 owner = USA version_name = "Los Angeles i-Class" } } }
			ship = { name = "USS Hampton" definition = attack_submarine start_experience_factor = 0.75 equipment = { attack_submarine_3 = { amount = 1 owner = USA version_name = "Los Angeles i-Class" } } }
			ship = { name = "USS Parche" definition = attack_submarine start_experience_factor = 0.75 equipment = { attack_submarine_2 = { amount = 1 owner = USA } } }
		}
	}
	fleet = {
		name = "Submarine Squadron 12" #Norfolk
		naval_base = 788
		task_force = {
			name = "Submarine Squadron 12" #Norfolk
			location = 788
			ship = { name = "USS Memphis" definition = attack_submarine start_experience_factor = 0.75 equipment = { attack_submarine_3 = { amount = 1 owner = USA } } }
			ship = { name = "USS Augusta" definition = attack_submarine start_experience_factor = 0.75 equipment = { attack_submarine_3 = { amount = 1 owner = USA } } }
			ship = { name = "USS San Juan" definition = attack_submarine start_experience_factor = 0.75 equipment = { attack_submarine_3 = { amount = 1 owner = USA version_name = "Los Angeles i-Class" } } }
			ship = { name = "USS Alexandria" definition = attack_submarine start_experience_factor = 0.75 equipment = { attack_submarine_3 = { amount = 1 owner = USA version_name = "Los Angeles i-Class" } } }
			ship = { name = "USS Toledo" definition = attack_submarine start_experience_factor = 0.75 equipment = { attack_submarine_3 = { amount = 1 owner = USA version_name = "Los Angeles i-Class" } } }
		}
	}
	fleet = {
		name = "Nassau Expeditionary Strike Group" #Norfolk
		naval_base = 788
		task_force = {
			name = "Nassau Expeditionary Strike Group" #Norfolk
			location = 788
			ship = { name = "USS Nassau" definition = helicopter_operator start_experience_factor = 0.75 equipment = { LHA_1 = { amount = 1 owner = USA } } }
			ship = { name = "USS Norfolk" definition = attack_submarine start_experience_factor = 0.75 equipment = { attack_submarine_3 = { amount = 1 owner = USA } } }
		}
	}
	fleet = {
		name = "Bataan Expeditionary Strike Group" #Norfolk
		naval_base = 788
		task_force = {
			name = "Bataan Expeditionary Strike Group" #Norfolk
			location = 788
			ship = { name = "USS Bataan" definition = helicopter_operator start_experience_factor = 0.75 equipment = { LHA_1 = { amount = 1 owner = USA } } }
			ship = { name = "USS Iwo Jima" definition = helicopter_operator start_experience_factor = 0.75 equipment = { LHA_1 = { amount = 1 owner = USA } } }
			ship = { name = "USS Albuquerque" definition = attack_submarine start_experience_factor = 0.75 equipment = { attack_submarine_3 = { amount = 1 owner = USA } } }

		}
	}
	fleet = {
		name = "Kearsarge Expeditionary Strike Group" #Norfolk
		naval_base = 788
		task_force = {
			name = "Kearsarge Expeditionary Strike Group" #Norfolk
			location = 788
			ship = { name = "USS Kearsarge" definition = helicopter_operator start_experience_factor = 0.75 equipment = { LHA_1 = { amount = 1 owner = USA } } }
			ship = { name = "USS Scranton" definition = attack_submarine start_experience_factor = 0.75 equipment = { attack_submarine_3 = { amount = 1 owner = USA version_name = "Los Angeles i-Class" } } }


		}
	}
	fleet = {
		name = "Saipan Expeditionary Strike Group" #Norfolk
		naval_base = 788
		task_force = {
			name = "Saipan Expeditionary Strike Group" #Norfolk
			location = 788
			ship = { name = "USS Saipan" definition = helicopter_operator start_experience_factor = 0.75 equipment = { LHA_1 = { amount = 1 owner = USA } } }
		}
	}
	fleet = {
		name = "Wasp Expeditionary Strike Group" #Norfolk
		naval_base = 788
		task_force = {
			name = "Wasp Expeditionary Strike Group" #Norfolk
			location = 788
			ship = { name = "USS Wasp" definition = helicopter_operator start_experience_factor = 0.75 equipment = { LHA_1 = { amount = 1 owner = USA } } }
		}
	}
	fleet = {
		name = "Tarawa Expeditionary Strike Group" #San Diego
		naval_base = 1562
		task_force = {
			name = "Tarawa Expeditionary Strike Group" #San Diego
			location = 1562
			ship = { name = "USS Tarawa" definition = helicopter_operator start_experience_factor = 0.75 equipment = { LHA_1 = { amount = 1 owner = USA } } }
		}
	}
	fleet = {
		name = "Peleliu Expeditionary Strike Group" #San Diego
		naval_base = 1562
		task_force = {
			name = "Peleliu Expeditionary Strike Group" #San Diego
			location = 1562
			ship = { name = "USS Peleliu" definition = helicopter_operator start_experience_factor = 0.75 equipment = { LHA_1 = { amount = 1 owner = USA } } }
		}
	}
	fleet = {
		name = "Boxer Expeditionary Strike Group" #San Diego
		naval_base = 1562
		task_force = {
			name = "Boxer Expeditionary Strike Group" #San Diego
			location = 1562
			ship = { name = "USS Boxer" definition = helicopter_operator start_experience_factor = 0.75 equipment = { LHA_1 = { amount = 1 owner = USA } } }
		}
	}
	fleet = {
		name = "Bonhomme Richard Expeditionary Strike Group" #San Diego
		naval_base = 1562
		task_force = {
			name = "Bonhomme Richard Expeditionary Strike Group" #San Diego
			location = 1562
			ship = { name = "USS Bonhomme Richard" definition = helicopter_operator start_experience_factor = 0.75 equipment = { LHA_1 = { amount = 1 owner = USA } } }
		}
	}
	fleet = {
		name = "Essex Expeditionary Strike Group" #Okinawa
		naval_base = 7115
		task_force = {
			name = "Essex Expeditionary Strike Group" #Okinawa
			location = 7115
			ship = { name = "USS Essex" definition = helicopter_operator start_experience_factor = 0.75 equipment = { LHA_1 = { amount = 1 owner = USA } } }
		}
	}
}
